%!PS-Adobe-3.0 EPSF-3.0
%%Creator: cairo 1.15.4 (http://cairographics.org)
%%CreationDate: Wed Oct 17 18:02:07 2018
%%Pages: 1
%%DocumentData: Clean7Bit
%%LanguageLevel: 2
%%BoundingBox: 8 5 373 204
%%EndComments
%%BeginProlog
save
50 dict begin
/q { gsave } bind def
/Q { grestore } bind def
/cm { 6 array astore concat } bind def
/w { setlinewidth } bind def
/J { setlinecap } bind def
/j { setlinejoin } bind def
/M { setmiterlimit } bind def
/d { setdash } bind def
/m { moveto } bind def
/l { lineto } bind def
/c { curveto } bind def
/h { closepath } bind def
/re { exch dup neg 3 1 roll 5 3 roll moveto 0 rlineto
      0 exch rlineto 0 rlineto closepath } bind def
/S { stroke } bind def
/f { fill } bind def
/f* { eofill } bind def
/n { newpath } bind def
/W { clip } bind def
/W* { eoclip } bind def
/BT { } bind def
/ET { } bind def
/pdfmark where { pop globaldict /?pdfmark /exec load put }
    { globaldict begin /?pdfmark /pop load def /pdfmark
    /cleartomark load def end } ifelse
/BDC { mark 3 1 roll /BDC pdfmark } bind def
/EMC { mark /EMC pdfmark } bind def
/cairo_store_point { /cairo_point_y exch def /cairo_point_x exch def } def
/Tj { show currentpoint cairo_store_point } bind def
/TJ {
  {
    dup
    type /stringtype eq
    { show } { -0.001 mul 0 cairo_font_matrix dtransform rmoveto } ifelse
  } forall
  currentpoint cairo_store_point
} bind def
/cairo_selectfont { cairo_font_matrix aload pop pop pop 0 0 6 array astore
    cairo_font exch selectfont cairo_point_x cairo_point_y moveto } bind def
/Tf { pop /cairo_font exch def /cairo_font_matrix where
      { pop cairo_selectfont } if } bind def
/Td { matrix translate cairo_font_matrix matrix concatmatrix dup
      /cairo_font_matrix exch def dup 4 get exch 5 get cairo_store_point
      /cairo_font where { pop cairo_selectfont } if } bind def
/Tm { 2 copy 8 2 roll 6 array astore /cairo_font_matrix exch def
      cairo_store_point /cairo_font where { pop cairo_selectfont } if } bind def
/g { setgray } bind def
/rg { setrgbcolor } bind def
/d1 { setcachedevice } bind def
/cairo_flush_ascii85_file { cairo_ascii85_file status { cairo_ascii85_file flushfile } if } def
/cairo_image { image cairo_flush_ascii85_file } def
/cairo_imagemask { imagemask cairo_flush_ascii85_file } def
%%EndProlog
%%BeginSetup
%%EndSetup
%%Page: 1 1
%%BeginPageSetup
%%PageBoundingBox: 8 5 373 204
%%EndPageSetup
q 8 5 365 199 rectclip
1 0 0 -1 0 213 cm q
0 g
0.547745 w
0 J
0 j
[] 0.0 d
4 M q 1 -0.674314 1 0.674314 0 0 cm
105.24 207.803 m 134.846 207.802 l 134.847 237.411 l 105.239 237.41 l h
105.24 207.803 m S Q
0.524409 w
q 1 0 0 1 0 0 cm
184.129 122.063 82.5 22.234 re S Q
0.723755 w
q 1 0 0 1 0 0 cm
9.078 47.746 131.852 42.832 re S Q
74.238 9.18 m 74.238 47.438 l 74.988 47.438 l 74.988 9.934 l 342.273 9.934
 l 342.273 49.195 l 343.027 49.195 l 343.027 9.18 l h
74.238 9.18 m f*
77.953 39.41 m 74.629 47.688 l 71.305 39.41 l 73.266 40.73 75.953 40.723
 77.953 39.41 c h
77.953 39.41 m f*
0.494898 w
1 j
q 1 0 0 1 0 0 cm
77.953 39.41 m 74.629 47.688 l 71.305 39.41 l 73.266 40.73 75.953 40.723
 77.953 39.41 c h
77.953 39.41 m S Q
0.75 w
0 j
q 1 0 0 1 0 0 cm
273.398 69.387 m 310.898 69.117 l S Q
302.859 65.848 m 311.895 69.098 l 302.906 72.477 l 304.332 70.508 304.305
 67.832 302.859 65.848 c h
302.859 65.848 m f*
0.515612 w
1 j
q -1 0.00714331 -0.00714331 -1 0 0 cm
-302.374 -68.008 m -311.385 -71.322 l -302.373 -74.637 l -303.813 -72.678
 -303.805 -70.002 -302.374 -68.008 c h
-302.374 -68.008 m S Q
0.75 w
0 j
q 1 0 0 1 0 0 cm
140.539 69.176 m 179.934 69.176 l S Q
171.914 65.848 m 180.93 69.16 l 171.914 72.477 l 173.355 70.52 173.348 
67.84 171.914 65.848 c h
171.914 65.848 m f*
0.515625 w
1 j
q -1 0 0 -1 0 0 cm
-171.914 -65.848 m -180.93 -69.16 l -171.914 -72.477 l -173.355 -70.52 
-173.348 -67.84 -171.914 -65.848 c h
-171.914 -65.848 m S Q
0.817043 w
0 j
q 1 0 0 1 0 0 cm
342.633 89.105 m 342.633 131.926 342.633 133.277 342.633 133.277 c 266.52
 133.277 l S Q
0.568512 w
q 1 0 0 1 0 0 cm
211.434 92.984 m 211.434 120.602 211.434 120.602 211.434 120.602 c S Q
213.957 114.523 m 211.445 121.355 l 208.93 114.523 l 210.414 115.613 212.445
 115.609 213.957 114.523 c h
213.957 114.523 m f*
0.390852 w
1 j
q 0 -1 1 0 0 0 cm
-114.523 213.957 m -121.355 211.445 l -114.523 208.93 l -115.613 210.414
 -115.609 212.445 -114.523 213.957 c h
-114.523 213.957 m S Q
0.350118 w
0 j
q 1 0 0 0.992923 0 0 cm
207.523 170.901 37.852 37.85 re S Q
0.561558 w
q 1 0 0 1 0 0 cm
225.109 144.266 m 225.109 168.492 l S Q
227.602 162.488 m 225.121 169.238 l 222.637 162.488 l 224.102 163.566 226.109
 163.559 227.602 162.488 c h
227.602 162.488 m f*
0.386071 w
1 j
q 0 -1 1 0 0 0 cm
-162.488 227.602 m -169.238 225.121 l -162.488 222.637 l -163.566 224.102
 -163.559 226.109 -162.488 227.602 c h
-162.488 227.602 m S Q
0.57038 w
0 j
q 1 0 0 1 0 0 cm
239.809 92.98 m 239.809 120.781 239.809 120.781 239.809 120.781 c S Q
242.34 114.684 m 239.816 121.539 l 237.297 114.684 l 238.785 115.777 240.82
 115.773 242.34 114.684 c h
242.34 114.684 m f*
0.392136 w
1 j
q 0 -1 1 0 0 0 cm
-114.684 242.34 m -121.539 239.816 l -114.684 237.297 l -115.777 238.785
 -115.773 240.82 -114.684 242.34 c h
-114.684 242.34 m S Q
0.524409 w
0 j
q 1 0 0 1 0 0 cm
186.836 45.586 86.516 40.984 re S Q
1 g
180.434 51.754 86.52 40.98 re f
0 g
q 1 0 0 1 0 0 cm
180.434 51.754 86.52 40.98 re S Q
Q Q
showpage
%%Trailer
end restore
%%EOF
