<?xml version="1.0" encoding="UTF-8" standalone="no"?>
<!-- Created with Inkscape (http://www.inkscape.org/) -->

<svg
   xmlns:rendltx="http://NOTSET"
   xmlns:dc="http://purl.org/dc/elements/1.1/"
   xmlns:cc="http://creativecommons.org/ns#"
   xmlns:rdf="http://www.w3.org/1999/02/22-rdf-syntax-ns#"
   xmlns:svg="http://www.w3.org/2000/svg"
   xmlns="http://www.w3.org/2000/svg"
   xmlns:xlink="http://www.w3.org/1999/xlink"
   xmlns:sodipodi="http://sodipodi.sourceforge.net/DTD/sodipodi-0.dtd"
   xmlns:inkscape="http://www.inkscape.org/namespaces/inkscape"
   width="81.335693mm"
   height="50.881458mm"
   viewBox="0 0 81.335693 50.881458"
   version="1.1"
   id="svg8"
   inkscape:version="0.92.3 (2405546, 2018-03-11)"
   sodipodi:docname="sup_learning_schematic.svg">
  <sodipodi:namedview
     id="base"
     pagecolor="#ffffff"
     bordercolor="#666666"
     borderopacity="1.0"
     inkscape:pageopacity="0.0"
     inkscape:pageshadow="2"
     inkscape:zoom="1.979899"
     inkscape:cx="108.09654"
     inkscape:cy="107.27581"
     inkscape:document-units="mm"
     inkscape:current-layer="ltx-render-layer"
     showgrid="false"
     inkscape:window-width="1920"
     inkscape:window-height="1017"
     inkscape:window-x="-8"
     inkscape:window-y="-8"
     inkscape:window-maximized="1"
     inkscape:snap-global="false"
     fit-margin-top="1"
     fit-margin-left="1"
     fit-margin-right="1"
     fit-margin-bottom="1" />
  <defs
     id="defs2">
    <defs
       id="defs1406">
      <g
         id="g1404">
        <symbol
           style="overflow:visible"
           overflow="visible"
           id="lx-text1090-glyph0-0">
          <path
             inkscape:connector-curvature="0"
             style="stroke:none"
             d=""
             id="path1374" />
        </symbol>
        <symbol
           style="overflow:visible"
           overflow="visible"
           id="lx-text1090-glyph0-1">
          <path
             inkscape:connector-curvature="0"
             style="stroke:none"
             d="m 7.796875,-8.140625 c 0,-0.21875 0,-0.28125 -0.125,-0.28125 -0.0625,0 -0.078125,0.03125 -0.15625,0.15625 L 6.9375,-7.328125 C 6.390625,-8 5.578125,-8.421875 4.71875,-8.421875 c -2.1875,0 -4.078125,1.890625 -4.078125,4.328125 0,2.484375 1.921875,4.34375 4.078125,4.34375 1.96875,0 3.078125,-1.703125 3.078125,-3.015625 0,-0.140625 0,-0.203125 -0.140625,-0.203125 -0.109375,0 -0.125,0.046875 -0.125,0.140625 -0.109375,1.890625 -1.5,2.734375 -2.65625,2.734375 -0.828125,0 -3.125,-0.5 -3.125,-4 0,-3.453125 2.25,-3.96875 3.109375,-3.96875 1.265625,0 2.359375,1.0625 2.59375,2.84375 0.03125,0.15625 0.03125,0.1875 0.171875,0.1875 0.171875,0 0.171875,-0.03125 0.171875,-0.28125 z m 0,0"
             id="path1377" />
        </symbol>
        <symbol
           style="overflow:visible"
           overflow="visible"
           id="lx-text1090-glyph0-2">
          <path
             inkscape:connector-curvature="0"
             style="stroke:none"
             d="m 5.484375,-2.5625 c 0,-1.53125 -1.171875,-2.765625 -2.5625,-2.765625 -1.421875,0 -2.5625,1.265625 -2.5625,2.765625 0,1.53125 1.1875,2.6875 2.5625,2.6875 1.40625,0 2.5625,-1.171875 2.5625,-2.6875 z m -2.5625,2.421875 c -0.4375,0 -0.96875,-0.1875 -1.3125,-0.78125 -0.328125,-0.53125 -0.34375,-1.234375 -0.34375,-1.75 0,-0.453125 0,-1.171875 0.375,-1.71875 C 1.96875,-4.90625 2.5,-5.09375 2.921875,-5.09375 c 0.453125,0 0.96875,0.21875 1.28125,0.6875 0.375,0.546875 0.375,1.296875 0.375,1.734375 0,0.421875 0,1.171875 -0.3125,1.734375 C 3.9375,-0.375 3.375,-0.140625 2.921875,-0.140625 Z m 0,0"
             id="path1380" />
        </symbol>
        <symbol
           style="overflow:visible"
           overflow="visible"
           id="lx-text1090-glyph0-3">
          <path
             inkscape:connector-curvature="0"
             style="stroke:none"
             d="m 3.921875,-5.0625 c 0,-0.203125 0,-0.265625 -0.125,-0.265625 -0.09375,0 -0.3125,0.265625 -0.40625,0.375 -0.359375,-0.3125 -0.734375,-0.375 -1.125,-0.375 -1.4375,0 -1.875,0.78125 -1.875,1.4375 0,0.140625 0,0.5625 0.453125,0.96875 0.390625,0.34375 0.796875,0.421875 1.34375,0.53125 0.65625,0.125 0.8125,0.171875 1.109375,0.40625 0.21875,0.171875 0.375,0.4375 0.375,0.78125 C 3.671875,-0.6875 3.375,-0.125 2.3125,-0.125 1.53125,-0.125 0.953125,-0.578125 0.6875,-1.765625 0.640625,-1.984375 0.640625,-2 0.640625,-2.015625 0.609375,-2.0625 0.5625,-2.0625 0.53125,-2.0625 0.390625,-2.0625 0.390625,-2 0.390625,-1.78125 v 1.625 c 0,0.21875 0,0.28125 0.125,0.28125 0.0625,0 0.0625,-0.015625 0.265625,-0.265625 C 0.84375,-0.234375 0.84375,-0.25 1.03125,-0.4375 1.484375,0.125 2.125,0.125 2.328125,0.125 c 1.25,0 1.875,-0.703125 1.875,-1.640625 0,-0.640625 -0.390625,-1.03125 -0.5,-1.140625 -0.421875,-0.375 -0.75,-0.4375 -1.546875,-0.578125 -0.34375,-0.078125 -1.21875,-0.25 -1.21875,-0.96875 0,-0.359375 0.25,-0.90625 1.328125,-0.90625 1.296875,0 1.375,1.109375 1.390625,1.46875 0.015625,0.109375 0.09375,0.109375 0.140625,0.109375 0.125,0 0.125,-0.0625 0.125,-0.28125 z m 0,0"
             id="path1383" />
        </symbol>
        <symbol
           style="overflow:visible"
           overflow="visible"
           id="lx-text1090-glyph0-4">
          <path
             inkscape:connector-curvature="0"
             style="stroke:none"
             d="M 2.015625,-4.8125 H 3.6875 V -5.15625 H 2.015625 v -2.1875 H 1.75 C 1.734375,-6.234375 1.296875,-5.078125 0.21875,-5.046875 V -4.8125 h 1.015625 v 3.328125 c 0,1.328125 0.875,1.609375 1.515625,1.609375 0.75,0 1.140625,-0.75 1.140625,-1.609375 V -2.15625 h -0.25 V -1.5 c 0,0.859375 -0.359375,1.359375 -0.8125,1.359375 -0.8125,0 -0.8125,-1.109375 -0.8125,-1.3125 z m 0,0"
             id="path1386" />
        </symbol>
        <symbol
           style="overflow:visible"
           overflow="visible"
           id="lx-text1090-glyph0-5">
          <path
             inkscape:connector-curvature="0"
             style="stroke:none"
             d="m 6.828125,-8.140625 h -6.34375 v 0.34375 h 0.25 c 0.859375,0 0.890625,0.125 0.890625,0.5625 v 6.328125 c 0,0.4375 -0.03125,0.5625 -0.890625,0.5625 h -0.25 V 0 c 0.296875,-0.03125 1.359375,-0.03125 1.71875,-0.03125 0.421875,0 1.46875,0 1.8125,0.03125 V -0.34375 H 3.65625 c -1.03125,0 -1.0625,-0.140625 -1.0625,-0.578125 v -2.96875 h 1.046875 c 1.125,0 1.25,0.390625 1.25,1.390625 H 5.15625 V -5.640625 H 4.890625 c 0,1 -0.125,1.390625 -1.25,1.390625 H 2.59375 v -3.0625 c 0,-0.390625 0.03125,-0.484375 0.546875,-0.484375 h 1.5 c 1.71875,0 2.0625,0.640625 2.234375,2.328125 h 0.265625 z m 0,0"
             id="path1389" />
        </symbol>
        <symbol
           style="overflow:visible"
           overflow="visible"
           id="lx-text1090-glyph0-6">
          <path
             inkscape:connector-curvature="0"
             style="stroke:none"
             d="m 3.640625,-5.140625 v 0.34375 c 0.8125,0 0.90625,0.09375 0.90625,0.671875 v 2.140625 C 4.546875,-0.96875 4,-0.125 3.109375,-0.125 2.125,-0.125 2.0625,-0.6875 2.0625,-1.3125 v -3.953125 l -1.6875,0.125 v 0.34375 c 0.921875,0 0.921875,0.046875 0.921875,1.109375 v 1.78125 c 0,0.75 0,1.171875 0.359375,1.578125 C 1.9375,-0.03125 2.421875,0.125 3.03125,0.125 c 0.203125,0 0.59375,0 1,-0.359375 C 4.375,-0.5 4.5625,-0.953125 4.5625,-0.953125 V 0.125 L 6.234375,0 v -0.34375 c -0.8125,0 -0.921875,-0.09375 -0.921875,-0.671875 v -4.25 z m 0,0"
             id="path1392" />
        </symbol>
        <symbol
           style="overflow:visible"
           overflow="visible"
           id="lx-text1090-glyph0-7">
          <path
             inkscape:connector-curvature="0"
             style="stroke:none"
             d="m 5.3125,-2.90625 c 0,-1.109375 0,-1.4375 -0.265625,-1.828125 -0.34375,-0.46875 -0.90625,-0.53125 -1.3125,-0.53125 -1.171875,0 -1.625,0.984375 -1.71875,1.21875 v -1.21875 l -1.640625,0.125 v 0.34375 c 0.8125,0 0.921875,0.09375 0.921875,0.671875 v 3.234375 c 0,0.546875 -0.140625,0.546875 -0.921875,0.546875 V 0 c 0.3125,-0.03125 0.96875,-0.03125 1.296875,-0.03125 0.34375,0 1,0 1.296875,0.03125 v -0.34375 c -0.75,0 -0.90625,0 -0.90625,-0.546875 v -2.21875 c 0,-1.25 0.828125,-1.921875 1.578125,-1.921875 0.734375,0 0.90625,0.609375 0.90625,1.34375 v 2.796875 c 0,0.546875 -0.140625,0.546875 -0.90625,0.546875 V 0 c 0.296875,-0.03125 0.953125,-0.03125 1.28125,-0.03125 0.34375,0 1,0 1.3125,0.03125 v -0.34375 c -0.609375,0 -0.90625,0 -0.921875,-0.359375 z m 0,0"
             id="path1395" />
        </symbol>
        <symbol
           style="overflow:visible"
           overflow="visible"
           id="lx-text1090-glyph0-8">
          <path
             inkscape:connector-curvature="0"
             style="stroke:none"
             d="m 4.328125,-4.421875 c -0.140625,0 -0.59375,0 -0.59375,0.484375 0,0.296875 0.203125,0.5 0.5,0.5 0.265625,0 0.5,-0.171875 0.5,-0.515625 0,-0.796875 -0.84375,-1.375 -1.8125,-1.375 -1.390625,0 -2.5,1.234375 -2.5,2.75 0,1.53125 1.140625,2.703125 2.5,2.703125 1.578125,0 1.9375,-1.4375 1.9375,-1.546875 0,-0.109375 -0.09375,-0.109375 -0.125,-0.109375 -0.109375,0 -0.125,0.03125 -0.15625,0.1875 C 4.3125,-0.5 3.671875,-0.140625 3.03125,-0.140625 c -0.734375,0 -1.703125,-0.640625 -1.703125,-2.453125 0,-1.984375 1.015625,-2.46875 1.609375,-2.46875 0.453125,0 1.109375,0.171875 1.390625,0.640625 z m 0,0"
             id="path1398" />
        </symbol>
        <symbol
           style="overflow:visible"
           overflow="visible"
           id="lx-text1090-glyph0-9">
          <path
             inkscape:connector-curvature="0"
             style="stroke:none"
             d="m 2.078125,-7.359375 c 0,-0.3125 -0.25,-0.59375 -0.578125,-0.59375 -0.3125,0 -0.578125,0.25 -0.578125,0.578125 0,0.359375 0.28125,0.578125 0.578125,0.578125 0.359375,0 0.578125,-0.296875 0.578125,-0.5625 z M 0.4375,-5.140625 v 0.34375 c 0.75,0 0.859375,0.078125 0.859375,0.65625 v 3.25 c 0,0.546875 -0.125,0.546875 -0.90625,0.546875 V 0 c 0.34375,-0.03125 0.90625,-0.03125 1.265625,-0.03125 0.125,0 0.8125,0 1.21875,0.03125 v -0.34375 c -0.765625,0 -0.8125,-0.0625 -0.8125,-0.53125 v -4.390625 z m 0,0"
             id="path1401" />
        </symbol>
      </g>
    </defs>
  </defs>
  <metadata
     id="metadata5">
    <rdf:RDF>
      <cc:Work
         rdf:about="">
        <dc:format>image/svg+xml</dc:format>
        <dc:type
           rdf:resource="http://purl.org/dc/dcmitype/StillImage" />
        <dc:title></dc:title>
      </cc:Work>
    </rdf:RDF>
  </metadata>
  <g
     style="display:inline"
     id="layer1"
     inkscape:groupmode="layer"
     inkscape:label="Layer 1"
     transform="translate(-1.7589576,-245.9227)">
    <path
       d="m 34.518722,257.80434 v 7.79981 H 58.118816 V 250.00407 H 34.518722 Z"
       style="fill:none;stroke:#000000;stroke-width:0.39993009;stroke-linecap:butt;stroke-linejoin:miter;stroke-miterlimit:10;stroke-dasharray:none;stroke-opacity:1"
       id="path833"
       inkscape:connector-curvature="0" />
    <path
       d="m 30.77829,259.06869 3.540478,-1.26435 -3.540478,-1.26471 v 1.26471"
       style="fill:#000000;fill-opacity:1;fill-rule:nonzero;stroke:none;stroke-width:0.03527778"
       id="path835"
       inkscape:connector-curvature="0" />
    <path
       d="M 13.449068,257.80434 H 30.77829"
       style="fill:none;stroke:#000000;stroke-width:0.39993009;stroke-linecap:butt;stroke-linejoin:miter;stroke-miterlimit:10;stroke-dasharray:none;stroke-opacity:1"
       id="path837"
       inkscape:connector-curvature="0" />
    <path
       d="m 34.518722,287.80421 v 7.79998 H 58.118816 V 280.00426 H 34.518722 Z"
       style="fill:none;stroke:#000000;stroke-width:0.39993009;stroke-linecap:butt;stroke-linejoin:miter;stroke-miterlimit:10;stroke-dasharray:none;stroke-opacity:1"
       id="path849"
       inkscape:connector-curvature="0" />
    <path
       d="m 47.495971,269.51847 -1.264355,-3.5403 -1.264356,3.5403 h 1.264356"
       style="fill:#000000;fill-opacity:1;fill-rule:nonzero;stroke:none;stroke-width:0.03527778"
       id="path851"
       inkscape:connector-curvature="0" />
    <path
       d="M 46.231616,279.89112 V 269.51847"
       style="fill:none;stroke:#000000;stroke-width:0.39993009;stroke-linecap:butt;stroke-linejoin:miter;stroke-miterlimit:10;stroke-dasharray:none;stroke-opacity:1"
       id="path853"
       inkscape:connector-curvature="0" />
    <path
       d="m 76.778293,259.06869 3.540478,-1.26435 -3.540478,-1.26471 v 1.26471"
       style="fill:#000000;fill-opacity:1;fill-rule:nonzero;stroke:none;stroke-width:0.03527778"
       id="path875"
       inkscape:connector-curvature="0" />
    <path
       d="M 58.318841,257.80434 H 76.778293"
       style="fill:none;stroke:#000000;stroke-width:0.39993009;stroke-linecap:butt;stroke-linejoin:miter;stroke-miterlimit:10;stroke-dasharray:none;stroke-opacity:1"
       id="path877"
       inkscape:connector-curvature="0" />
    <path
       d="m 61.946103,286.4529 -3.540478,1.26435 3.540478,1.2645 v -1.2645"
       style="fill:#000000;fill-opacity:1;fill-rule:nonzero;stroke:none;stroke-width:0.03527778"
       id="path879"
       inkscape:connector-curvature="0" />
    <path
       d="m 70.318578,257.80434 -0.195439,29.91291 h -8.177036"
       style="fill:none;stroke:#000000;stroke-width:0.39993009;stroke-linecap:butt;stroke-linejoin:miter;stroke-miterlimit:10;stroke-dasharray:none;stroke-opacity:1"
       id="path881"
       inkscape:connector-curvature="0" />
    <path
       d="m 30.77829,289.06857 3.540478,-1.2645 -3.540478,-1.26436 v 1.26436"
       style="fill:#000000;fill-opacity:1;fill-rule:nonzero;stroke:none;stroke-width:0.03527778"
       id="path883"
       inkscape:connector-curvature="0" />
    <path
       d="M 13.449068,287.80407 H 30.77829"
       style="fill:none;stroke:#000000;stroke-width:0.39993009;stroke-linecap:butt;stroke-linejoin:miter;stroke-miterlimit:10;stroke-dasharray:none;stroke-opacity:1"
       id="path885"
       inkscape:connector-curvature="0" />
  </g>
  <g
     style="display:none"
     inkscape:label="Text"
     id="layer2"
     inkscape:groupmode="layer"
     transform="translate(-1.7589576,-245.9227)">
    <text
       id="text1062"
       y="285.17334"
       x="2.6058774"
       style="font-style:normal;font-weight:normal;font-size:4.23333311px;line-height:125%;font-family:sans-serif;letter-spacing:0px;word-spacing:0px;fill:#000000;fill-opacity:1;stroke:none;stroke-width:0.26458332px;stroke-linecap:butt;stroke-linejoin:miter;stroke-opacity:1"
       xml:space="preserve"><tspan
         style="stroke-width:0.26458332px"
         y="285.17334"
         x="2.6058774"
         id="tspan1060"
         sodipodi:role="line">Target</tspan></text>
    <text
       id="text1066"
       y="262.72269"
       x="1.1358954"
       style="font-style:normal;font-weight:normal;font-size:4.23333311px;line-height:125%;font-family:sans-serif;letter-spacing:0px;word-spacing:0px;fill:#000000;fill-opacity:1;stroke:none;stroke-width:0.26458332px;stroke-linecap:butt;stroke-linejoin:miter;stroke-opacity:1"
       xml:space="preserve"><tspan
         style="stroke-width:0.26458332px"
         y="262.72269"
         x="1.1358954"
         id="tspan1064"
         sodipodi:role="line">$\textbf{x}$</tspan></text>
    <text
       id="text1070"
       y="292.22549"
       x="0.11938836"
       style="font-style:normal;font-weight:normal;font-size:4.23333311px;line-height:125%;font-family:sans-serif;letter-spacing:0px;word-spacing:0px;fill:#000000;fill-opacity:1;stroke:none;stroke-width:0.26458332px;stroke-linecap:butt;stroke-linejoin:miter;stroke-opacity:1"
       xml:space="preserve"><tspan
         style="stroke-width:0.26458332px"
         y="292.22549"
         x="0.11938836"
         id="tspan1068"
         sodipodi:role="line">$\textbf{y}$</tspan></text>
    <text
       id="text1074"
       y="255.43956"
       x="59.200199"
       style="font-style:normal;font-weight:normal;font-size:4.23333311px;line-height:125%;font-family:sans-serif;letter-spacing:0px;word-spacing:0px;fill:#000000;fill-opacity:1;stroke:none;stroke-width:0.26458332px;stroke-linecap:butt;stroke-linejoin:miter;stroke-opacity:1"
       xml:space="preserve"><tspan
         style="stroke-width:0.26458332px"
         y="255.43956"
         x="59.200199"
         id="tspan1072"
         sodipodi:role="line">$\tilde{\textbf{y}}$</tspan></text>
    <text
       id="text1078"
       y="250.16101"
       x="65.547844"
       style="font-style:normal;font-weight:normal;font-size:4.23333311px;line-height:125%;font-family:sans-serif;letter-spacing:0px;word-spacing:0px;fill:#000000;fill-opacity:1;stroke:none;stroke-width:0.26458332px;stroke-linecap:butt;stroke-linejoin:miter;stroke-opacity:1"
       xml:space="preserve"><tspan
         style="stroke-width:0.26458332px"
         y="250.16101"
         x="65.547844"
         id="tspan1076"
         sodipodi:role="line">Output</tspan></text>
    <text
       id="text1082"
       y="255.09877"
       x="3.5251083"
       style="font-style:normal;font-weight:normal;font-size:4.23333311px;line-height:125%;font-family:sans-serif;letter-spacing:0px;word-spacing:0px;fill:#000000;fill-opacity:1;stroke:none;stroke-width:0.26458332px;stroke-linecap:butt;stroke-linejoin:miter;stroke-opacity:1"
       xml:space="preserve"><tspan
         style="stroke-width:0.26458332px"
         y="255.09877"
         x="3.5251083"
         id="tspan1080"
         sodipodi:role="line">Input</tspan></text>
    <text
       id="text1086"
       y="259.15158"
       x="39.580502"
       style="font-style:normal;font-weight:normal;font-size:4.23333311px;line-height:125%;font-family:sans-serif;letter-spacing:0px;word-spacing:0px;fill:#000000;fill-opacity:1;stroke:none;stroke-width:0.26458332px;stroke-linecap:butt;stroke-linejoin:miter;stroke-opacity:1"
       xml:space="preserve"><tspan
         style="stroke-width:0.26458332px"
         y="259.15158"
         x="39.580502"
         id="tspan1084"
         sodipodi:role="line">Model</tspan></text>
    <text
       id="text1090"
       y="285.65695"
       x="32.18705"
       style="font-style:normal;font-weight:normal;font-size:4.23333311px;line-height:125%;font-family:sans-serif;letter-spacing:0px;word-spacing:0px;fill:#000000;fill-opacity:1;stroke:none;stroke-width:0.26458332px;stroke-linecap:butt;stroke-linejoin:miter;stroke-opacity:1"
       xml:space="preserve"><tspan
         style="stroke-width:0.26458332px"
         y="285.65695"
         x="32.18705"
         id="tspan1088"
         sodipodi:role="line">Cost Function</tspan></text>
    <text
       id="text1094"
       y="290.90778"
       x="35.975487"
       style="font-style:normal;font-weight:normal;font-size:4.23333311px;line-height:125%;font-family:sans-serif;letter-spacing:0px;word-spacing:0px;fill:#000000;fill-opacity:1;stroke:none;stroke-width:0.26458332px;stroke-linecap:butt;stroke-linejoin:miter;stroke-opacity:1"
       xml:space="preserve"><tspan
         style="stroke-width:0.26458332px"
         y="290.90778"
         x="35.975487"
         id="tspan1092"
         sodipodi:role="line">$J(\cdot)$</tspan></text>
  </g>
  <g
     style="display:inline"
     rendltx:math="False"
     rendltx:newline="False"
     rendltx:fontsize="12"
     rendltx:depth="0"
     rendltx:scale="1.0"
     rendltx:preamble=""
     id="ltx-render-layer"
     inkscape:groupmode="layer"
     inkscape:label="Rendered Latex"
     transform="translate(-1.7589576,-245.9227)">
    <g
       id="g1416"
       style="fill:#000000;fill-opacity:1"
       transform="matrix(0.352778,0,0,0.352778,42.18133,284.66519)">
      <use
         id="use1408"
         y="0"
         x="0"
         xlink:href="#lx-text1090-glyph0-1"
         width="100%"
         height="100%" />
      <use
         id="use1410"
         y="0"
         x="8.4547167"
         xlink:href="#lx-text1090-glyph0-2"
         width="100%"
         height="100%" />
      <use
         id="use1412"
         y="0"
         x="14.307983"
         xlink:href="#lx-text1090-glyph0-3"
         width="100%"
         height="100%" />
      <use
         id="use1414"
         y="0"
         x="18.925081"
         xlink:href="#lx-text1090-glyph0-4"
         width="100%"
         height="100%" />
    </g>
    <g
       id="g1784"
       transform="translate(-0.43491738,0.5741806)">
      <g
         transform="matrix(0.352778,0,0,0.352778,29.113451,288.06238)"
         style="fill:#000000;fill-opacity:1"
         id="g1420">
        <use
           height="100%"
           width="100%"
           xlink:href="#lx-text1090-glyph0-5"
           x="27.375017"
           y="0"
           id="use1418" />
      </g>
      <g
         transform="matrix(0.352778,0,0,0.352778,29.113451,288.06238)"
         style="fill:#000000;fill-opacity:1"
         id="g1436">
        <use
           height="100%"
           width="100%"
           xlink:href="#lx-text1090-glyph0-6"
           x="34.046021"
           y="0"
           id="use1422" />
        <use
           height="100%"
           width="100%"
           xlink:href="#lx-text1090-glyph0-7"
           x="40.549648"
           y="0"
           id="use1424" />
        <use
           height="100%"
           width="100%"
           xlink:href="#lx-text1090-glyph0-8"
           x="47.053276"
           y="0"
           id="use1426" />
        <use
           height="100%"
           width="100%"
           xlink:href="#lx-text1090-glyph0-4"
           x="52.25618"
           y="0"
           id="use1428" />
        <use
           height="100%"
           width="100%"
           xlink:href="#lx-text1090-glyph0-9"
           x="56.80872"
           y="0"
           id="use1430" />
        <use
           height="100%"
           width="100%"
           xlink:href="#lx-text1090-glyph0-2"
           x="60.060535"
           y="0"
           id="use1432" />
        <use
           height="100%"
           width="100%"
           xlink:href="#lx-text1090-glyph0-7"
           x="65.913803"
           y="0"
           id="use1434" />
      </g>
    </g>
    <g
       id="lx-text1062"
       transform="matrix(0.352778,0,0,0.352778,2.6101294,285.17334)">
      <defs
         id="defs2638">
        <g
           id="g2636">
          <symbol
             id="lx-text1062-glyph0-0"
             overflow="visible"
             style="overflow:visible">
            <path
               id="path2615"
               d=""
               style="stroke:none"
               inkscape:connector-curvature="0" />
          </symbol>
          <symbol
             id="lx-text1062-glyph0-1"
             overflow="visible"
             style="overflow:visible">
            <path
               id="path2618"
               d="M 7.8125,-8.109375 H 0.640625 L 0.421875,-5.4375 H 0.6875 C 0.84375,-7.328125 0.953125,-7.75 2.84375,-7.75 c 0.21875,0 0.546875,0 0.640625,0.015625 0.25,0.03125 0.25,0.1875 0.25,0.453125 v 6.359375 c 0,0.40625 0,0.578125 -1.171875,0.578125 H 2.140625 V 0 c 0.375,-0.03125 1.609375,-0.03125 2.078125,-0.03125 0.46875,0 1.703125,0 2.09375,0.03125 V -0.34375 H 5.875 c -1.171875,0 -1.171875,-0.171875 -1.171875,-0.578125 V -7.28125 c 0,-0.296875 0.03125,-0.40625 0.21875,-0.453125 C 5.015625,-7.75 5.359375,-7.75 5.59375,-7.75 c 1.890625,0 2,0.421875 2.15625,2.3125 h 0.265625 z m 0,0"
               style="stroke:none"
               inkscape:connector-curvature="0" />
          </symbol>
          <symbol
             id="lx-text1062-glyph0-2"
             overflow="visible"
             style="overflow:visible">
            <path
               id="path2621"
               d="m 4.609375,-3.1875 c 0,-0.65625 0,-1.125 -0.515625,-1.59375 C 3.671875,-5.15625 3.125,-5.328125 2.609375,-5.328125 1.625,-5.328125 0.875,-4.6875 0.875,-3.90625 c 0,0.34375 0.21875,0.515625 0.5,0.515625 0.28125,0 0.484375,-0.203125 0.484375,-0.5 C 1.859375,-4.375 1.4375,-4.375 1.25,-4.375 c 0.28125,-0.5 0.859375,-0.71875 1.328125,-0.71875 0.546875,0 1.265625,0.453125 1.265625,1.53125 v 0.484375 c -2.40625,0.03125 -3.3125,1.03125 -3.3125,1.953125 0,0.953125 1.09375,1.25 1.828125,1.25 0.78125,0 1.328125,-0.484375 1.546875,-1.0625 0.046875,0.5625 0.421875,1 0.9375,1 0.25,0 0.9375,-0.171875 0.9375,-1.125 V -1.734375 H 5.515625 V -1.0625 c 0,0.6875 -0.28125,0.78125 -0.453125,0.78125 -0.453125,0 -0.453125,-0.640625 -0.453125,-0.8125 z m -0.765625,1.5 c 0,1.171875 -0.875,1.5625 -1.390625,1.5625 -0.59375,0 -1.078125,-0.421875 -1.078125,-1 0,-1.578125 2.03125,-1.71875 2.46875,-1.75 z m 0,0"
               style="stroke:none"
               inkscape:connector-curvature="0" />
          </symbol>
          <symbol
             id="lx-text1062-glyph0-3"
             overflow="visible"
             style="overflow:visible">
            <path
               id="path2624"
               d="m 2,-2.78125 c 0,-1.15625 0.46875,-2.25 1.390625,-2.25 0.09375,0 0.125,0 0.171875,0.015625 -0.09375,0.046875 -0.28125,0.109375 -0.28125,0.4375 0,0.34375 0.265625,0.484375 0.453125,0.484375 0.25,0 0.484375,-0.15625 0.484375,-0.484375 0,-0.359375 -0.328125,-0.6875 -0.84375,-0.6875 -1.015625,0 -1.359375,1.09375 -1.421875,1.328125 H 1.9375 v -1.328125 l -1.609375,0.125 v 0.34375 c 0.8125,0 0.921875,0.09375 0.921875,0.671875 v 3.234375 c 0,0.546875 -0.140625,0.546875 -0.921875,0.546875 V 0 c 0.34375,-0.03125 1,-0.03125 1.359375,-0.03125 0.328125,0 1.171875,0 1.4375,0.03125 V -0.34375 H 2.890625 C 2.015625,-0.34375 2,-0.484375 2,-0.90625 Z m 0,0"
               style="stroke:none"
               inkscape:connector-curvature="0" />
          </symbol>
          <symbol
             id="lx-text1062-glyph0-4"
             overflow="visible"
             style="overflow:visible">
            <path
               id="path2627"
               d="m 1.421875,-2.15625 c 0.5625,0.359375 1.046875,0.359375 1.171875,0.359375 1.078125,0 1.875,-0.8125 1.875,-1.734375 0,-0.3125 -0.09375,-0.765625 -0.46875,-1.15625 0.453125,-0.46875 1.015625,-0.46875 1.078125,-0.46875 0.046875,0 0.109375,0 0.15625,0.015625 -0.125,0.046875 -0.171875,0.171875 -0.171875,0.296875 0,0.171875 0.109375,0.3125 0.296875,0.3125 0.109375,0 0.3125,-0.0625 0.3125,-0.328125 0,-0.203125 -0.15625,-0.546875 -0.578125,-0.546875 -0.625,0 -1.09375,0.390625 -1.25,0.5625 -0.359375,-0.265625 -0.78125,-0.421875 -1.234375,-0.421875 -1.078125,0 -1.875,0.8125 -1.875,1.734375 0,0.671875 0.40625,1.109375 0.53125,1.21875 -0.140625,0.1875 -0.359375,0.53125 -0.359375,1 0,0.6875 0.421875,0.984375 0.515625,1.046875 -0.546875,0.15625 -1.09375,0.59375 -1.09375,1.203125 0,0.828125 1.125,1.515625 2.59375,1.515625 1.421875,0 2.59375,-0.640625 2.59375,-1.53125 0,-0.296875 -0.078125,-1 -0.796875,-1.375 -0.609375,-0.3125 -1.203125,-0.3125 -2.234375,-0.3125 -0.734375,0 -0.8125,0 -1.03125,-0.21875 -0.109375,-0.125 -0.21875,-0.359375 -0.21875,-0.609375 0,-0.203125 0.0625,-0.40625 0.1875,-0.5625 z m 1.1875,0.109375 c -1.0625,0 -1.0625,-1.203125 -1.0625,-1.484375 0,-0.203125 0,-0.703125 0.203125,-1.015625 0.234375,-0.359375 0.59375,-0.46875 0.84375,-0.46875 1.046875,0 1.046875,1.203125 1.046875,1.484375 0,0.203125 0,0.703125 -0.203125,1.015625 -0.21875,0.359375 -0.578125,0.46875 -0.828125,0.46875 z m 0.3125,4.25 C 1.78125,2.203125 0.90625,1.609375 0.90625,0.9375 0.90625,0.84375 0.9375,0.375 1.390625,0.0625 1.65625,-0.109375 1.75,-0.109375 2.59375,-0.109375 c 0.984375,0 2.34375,0 2.34375,1.046875 0,0.703125 -0.90625,1.265625 -2.015625,1.265625 z m 0,0"
               style="stroke:none"
               inkscape:connector-curvature="0" />
          </symbol>
          <symbol
             id="lx-text1062-glyph0-5"
             overflow="visible"
             style="overflow:visible">
            <path
               id="path2630"
               d="m 4.578125,-2.765625 c 0.265625,0 0.28125,0 0.28125,-0.234375 0,-1.203125 -0.640625,-2.328125 -2.09375,-2.328125 -1.359375,0 -2.40625,1.234375 -2.40625,2.703125 0,1.578125 1.21875,2.75 2.546875,2.75 1.421875,0 1.953125,-1.296875 1.953125,-1.546875 0,-0.078125 -0.046875,-0.125 -0.125,-0.125 -0.09375,0 -0.125,0.0625 -0.140625,0.125 -0.3125,1 -1.109375,1.28125 -1.625,1.28125 -0.5,0 -1.703125,-0.34375 -1.703125,-2.40625 v -0.21875 z M 1.28125,-3 c 0.09375,-1.875 1.140625,-2.09375 1.484375,-2.09375 1.28125,0 1.34375,1.6875 1.359375,2.09375 z m 0,0"
               style="stroke:none"
               inkscape:connector-curvature="0" />
          </symbol>
          <symbol
             id="lx-text1062-glyph0-6"
             overflow="visible"
             style="overflow:visible">
            <path
               id="path2633"
               d="M 2.015625,-4.8125 H 3.6875 V -5.15625 H 2.015625 v -2.1875 H 1.75 C 1.734375,-6.234375 1.296875,-5.078125 0.21875,-5.046875 V -4.8125 h 1.015625 v 3.328125 c 0,1.328125 0.875,1.609375 1.515625,1.609375 0.75,0 1.140625,-0.75 1.140625,-1.609375 V -2.15625 h -0.25 V -1.5 c 0,0.859375 -0.359375,1.359375 -0.8125,1.359375 -0.8125,0 -0.8125,-1.109375 -0.8125,-1.3125 z m 0,0"
               style="stroke:none"
               inkscape:connector-curvature="0" />
          </symbol>
        </g>
      </defs>
      <g
         id="lx-text1062-surface1">
        <g
           id="g2642"
           style="fill:#000000;fill-opacity:1">
          <use
             id="use2640"
             y="0"
             x="0"
             xlink:href="#lx-text1062-glyph0-1"
             width="100%"
             height="100%" />
        </g>
        <g
           id="g2654"
           style="fill:#000000;fill-opacity:1">
          <use
             id="use2644"
             y="0"
             x="7.474391"
             xlink:href="#lx-text1062-glyph0-2"
             width="100%"
             height="100%" />
          <use
             id="use2646"
             y="0"
             x="13.327657"
             xlink:href="#lx-text1062-glyph0-3"
             width="100%"
             height="100%" />
          <use
             id="use2648"
             y="0"
             x="17.880198"
             xlink:href="#lx-text1062-glyph0-4"
             width="100%"
             height="100%" />
          <use
             id="use2650"
             y="0"
             x="23.733463"
             xlink:href="#lx-text1062-glyph0-5"
             width="100%"
             height="100%" />
          <use
             id="use2652"
             y="0"
             x="28.936365"
             xlink:href="#lx-text1062-glyph0-6"
             width="100%"
             height="100%" />
        </g>
      </g>
    </g>
    <g
       id="lx-text1066"
       transform="matrix(0.352778,0,0,0.352778,7.2208479,260.04999)">
      <defs
         id="defs2666">
        <g
           id="g2664">
          <symbol
             id="lx-text1066-glyph0-0"
             overflow="visible"
             style="overflow:visible">
            <path
               id="path2658"
               d=""
               style="stroke:none"
               inkscape:connector-curvature="0" />
          </symbol>
          <symbol
             id="lx-text1066-glyph0-1"
             overflow="visible"
             style="overflow:visible">
            <path
               id="path2661"
               d="m 4.03125,-2.953125 1.390625,-1.59375 c 0.125,-0.15625 0.234375,-0.25 1.21875,-0.25 V -5.3125 c -0.671875,0.03125 -0.6875,0.03125 -1.09375,0.03125 -0.34375,0 -0.859375,0 -1.203125,-0.03125 v 0.515625 c 0.234375,0 0.484375,0.0625 0.484375,0.140625 0,0.03125 -0.0625,0.109375 -0.078125,0.140625 L 3.703125,-3.34375 2.515625,-4.796875 H 3.03125 V -5.3125 C 2.75,-5.28125 1.9375,-5.28125 1.609375,-5.28125 c -0.359375,0 -1,0 -1.328125,-0.03125 v 0.515625 H 1.125 l 1.859375,2.28125 -1.546875,1.75 c -0.140625,0.171875 -0.234375,0.25 -1.21875,0.25 V 0 c 0.71875,-0.03125 0.734375,-0.03125 1.109375,-0.03125 0.34375,0 0.84375,0 1.1875,0.03125 v -0.515625 c -0.234375,0 -0.484375,-0.0625 -0.484375,-0.140625 0,-0.015625 0,-0.03125 0.078125,-0.125 L 3.3125,-2.125 4.640625,-0.515625 h -0.5 V 0 c 0.28125,-0.03125 1.078125,-0.03125 1.421875,-0.03125 0.359375,0 0.984375,0 1.328125,0.03125 v -0.515625 h -0.84375 z m 0,0"
               style="stroke:none"
               inkscape:connector-curvature="0" />
          </symbol>
        </g>
      </defs>
      <g
         id="lx-text1066-surface1">
        <g
           id="g2670"
           style="fill:#000000;fill-opacity:1">
          <use
             id="use2668"
             y="0"
             x="0"
             xlink:href="#lx-text1066-glyph0-1"
             width="100%"
             height="100%" />
        </g>
      </g>
    </g>
    <g
       id="lx-text1070"
       transform="matrix(0.352778,0,0,0.352778,7.2291162,290.08733)">
      <defs
         id="defs2682">
        <g
           id="g2680">
          <symbol
             id="lx-text1070-glyph0-0"
             overflow="visible"
             style="overflow:visible">
            <path
               id="path2674"
               d=""
               style="stroke:none"
               inkscape:connector-curvature="0" />
          </symbol>
          <symbol
             id="lx-text1070-glyph0-1"
             overflow="visible"
             style="overflow:visible">
            <path
               id="path2677"
               d="m 5.921875,-4.53125 c 0.0625,-0.171875 0.109375,-0.265625 0.875,-0.265625 V -5.3125 c -0.40625,0.03125 -0.453125,0.03125 -0.9375,0.03125 -0.328125,0 -0.34375,0 -1.03125,-0.03125 v 0.515625 c 0.015625,0 0.578125,0 0.578125,0.15625 0,0.03125 -0.046875,0.109375 -0.046875,0.140625 l -1.40625,3.015625 -1.53125,-3.3125 h 0.65625 V -5.3125 c -0.28125,0.03125 -1.09375,0.03125 -1.421875,0.03125 -0.359375,0 -1.0625,0 -1.375,-0.03125 v 0.515625 H 1.046875 L 3.265625,0 C 3.203125,0.140625 3.03125,0.484375 2.96875,0.640625 2.71875,1.171875 2.34375,2 1.5,2 1.453125,2 1.3125,2 1.1875,1.921875 1.203125,1.90625 1.5625,1.765625 1.5625,1.3125 c 0,-0.390625 -0.28125,-0.640625 -0.640625,-0.640625 -0.375,0 -0.65625,0.25 -0.65625,0.65625 0,0.5625 0.515625,1.0625 1.234375,1.0625 0.984375,0 1.625,-0.890625 1.875,-1.40625 z m 0,0"
               style="stroke:none"
               inkscape:connector-curvature="0" />
          </symbol>
        </g>
      </defs>
      <g
         id="lx-text1070-surface1">
        <g
           id="g2686"
           style="fill:#000000;fill-opacity:1">
          <use
             id="use2684"
             y="0"
             x="0"
             xlink:href="#lx-text1070-glyph0-1"
             width="100%"
             height="100%" />
        </g>
      </g>
    </g>
    <g
       id="lx-text1074"
       transform="matrix(0.352778,0,0,0.352778,74.425076,254.64092)">
      <defs
         id="defs2704">
        <g
           id="g2702">
          <symbol
             id="lx-text1074-glyph0-0"
             overflow="visible"
             style="overflow:visible">
            <path
               id="path2690"
               d=""
               style="stroke:none"
               inkscape:connector-curvature="0" />
          </symbol>
          <symbol
             id="lx-text1074-glyph0-1"
             overflow="visible"
             style="overflow:visible">
            <path
               id="path2693"
               d="M 4.703125,-7.9375 C 4.34375,-7.59375 4.09375,-7.34375 3.71875,-7.34375 3.53125,-7.34375 3.375,-7.390625 3,-7.640625 2.765625,-7.78125 2.515625,-7.9375 2.25,-7.9375 c -0.4375,0 -0.703125,0.296875 -1.265625,0.921875 l 0.15625,0.171875 C 1.5,-7.203125 1.75,-7.4375 2.125,-7.4375 c 0.1875,0 0.34375,0.03125 0.71875,0.296875 0.234375,0.140625 0.484375,0.296875 0.75,0.296875 0.453125,0 0.703125,-0.296875 1.265625,-0.921875 z m 0,0"
               style="stroke:none"
               inkscape:connector-curvature="0" />
          </symbol>
          <symbol
             id="lx-text1074-glyph1-0"
             overflow="visible"
             style="overflow:visible">
            <path
               id="path2696"
               d=""
               style="stroke:none"
               inkscape:connector-curvature="0" />
          </symbol>
          <symbol
             id="lx-text1074-glyph1-1"
             overflow="visible"
             style="overflow:visible">
            <path
               id="path2699"
               d="m 5.921875,-4.53125 c 0.0625,-0.171875 0.109375,-0.265625 0.875,-0.265625 V -5.3125 c -0.40625,0.03125 -0.453125,0.03125 -0.9375,0.03125 -0.328125,0 -0.34375,0 -1.03125,-0.03125 v 0.515625 c 0.015625,0 0.578125,0 0.578125,0.15625 0,0.03125 -0.046875,0.109375 -0.046875,0.140625 l -1.40625,3.015625 -1.53125,-3.3125 h 0.65625 V -5.3125 c -0.28125,0.03125 -1.09375,0.03125 -1.421875,0.03125 -0.359375,0 -1.0625,0 -1.375,-0.03125 v 0.515625 H 1.046875 L 3.265625,0 C 3.203125,0.140625 3.03125,0.484375 2.96875,0.640625 2.71875,1.171875 2.34375,2 1.5,2 1.453125,2 1.3125,2 1.1875,1.921875 1.203125,1.90625 1.5625,1.765625 1.5625,1.3125 c 0,-0.390625 -0.28125,-0.640625 -0.640625,-0.640625 -0.375,0 -0.65625,0.25 -0.65625,0.65625 0,0.5625 0.515625,1.0625 1.234375,1.0625 0.984375,0 1.625,-0.890625 1.875,-1.40625 z m 0,0"
               style="stroke:none"
               inkscape:connector-curvature="0" />
          </symbol>
        </g>
      </defs>
      <g
         id="lx-text1074-surface1">
        <g
           id="g2708"
           style="fill:#000000;fill-opacity:1">
          <use
             id="use2706"
             y="-0.16599999"
             x="0.62300003"
             xlink:href="#lx-text1074-glyph0-1"
             width="100%"
             height="100%" />
        </g>
        <g
           id="g2712"
           style="fill:#000000;fill-opacity:1">
          <use
             id="use2710"
             y="0"
             x="0"
             xlink:href="#lx-text1074-glyph1-1"
             width="100%"
             height="100%" />
        </g>
      </g>
    </g>
    <g
       id="lx-text1078"
       transform="matrix(0.352778,0,0,0.352778,69.021001,249.89375)">
      <defs
         id="defs2733">
        <g
           id="g2731">
          <symbol
             id="lx-text1078-glyph0-0"
             overflow="visible"
             style="overflow:visible">
            <path
               id="path2716"
               d=""
               style="stroke:none"
               inkscape:connector-curvature="0" />
          </symbol>
          <symbol
             id="lx-text1078-glyph0-1"
             overflow="visible"
             style="overflow:visible">
            <path
               id="path2719"
               d="m 8.453125,-4.046875 c 0,-2.484375 -1.8125,-4.375 -3.90625,-4.375 -2.125,0 -3.90625,1.921875 -3.90625,4.375 0,2.421875 1.8125,4.296875 3.90625,4.296875 2.140625,0 3.90625,-1.90625 3.90625,-4.296875 z M 4.546875,-0.03125 C 3.328125,-0.03125 1.75,-1.171875 1.75,-4.234375 c 0,-2.921875 1.671875,-3.921875 2.796875,-3.921875 1.171875,0 2.796875,1.03125 2.796875,3.921875 0,3.109375 -1.625,4.203125 -2.796875,4.203125 z m 0,0"
               style="stroke:none"
               inkscape:connector-curvature="0" />
          </symbol>
          <symbol
             id="lx-text1078-glyph0-2"
             overflow="visible"
             style="overflow:visible">
            <path
               id="path2722"
               d="m 3.640625,-5.140625 v 0.34375 c 0.8125,0 0.90625,0.09375 0.90625,0.671875 v 2.140625 C 4.546875,-0.96875 4,-0.125 3.109375,-0.125 2.125,-0.125 2.0625,-0.6875 2.0625,-1.3125 v -3.953125 l -1.6875,0.125 v 0.34375 c 0.921875,0 0.921875,0.046875 0.921875,1.109375 v 1.78125 c 0,0.75 0,1.171875 0.359375,1.578125 C 1.9375,-0.03125 2.421875,0.125 3.03125,0.125 c 0.203125,0 0.59375,0 1,-0.359375 C 4.375,-0.5 4.5625,-0.953125 4.5625,-0.953125 V 0.125 L 6.234375,0 v -0.34375 c -0.8125,0 -0.921875,-0.09375 -0.921875,-0.671875 v -4.25 z m 0,0"
               style="stroke:none"
               inkscape:connector-curvature="0" />
          </symbol>
          <symbol
             id="lx-text1078-glyph0-3"
             overflow="visible"
             style="overflow:visible">
            <path
               id="path2725"
               d="M 2.015625,-4.8125 H 3.6875 V -5.15625 H 2.015625 v -2.1875 H 1.75 C 1.734375,-6.234375 1.296875,-5.078125 0.21875,-5.046875 V -4.8125 h 1.015625 v 3.328125 c 0,1.328125 0.875,1.609375 1.515625,1.609375 0.75,0 1.140625,-0.75 1.140625,-1.609375 V -2.15625 h -0.25 V -1.5 c 0,0.859375 -0.359375,1.359375 -0.8125,1.359375 -0.8125,0 -0.8125,-1.109375 -0.8125,-1.3125 z m 0,0"
               style="stroke:none"
               inkscape:connector-curvature="0" />
          </symbol>
          <symbol
             id="lx-text1078-glyph0-4"
             overflow="visible"
             style="overflow:visible">
            <path
               id="path2728"
               d="m 2.921875,1.96875 c -0.765625,0 -0.90625,0 -0.90625,-0.53125 V -0.640625 C 2.234375,-0.34375 2.71875,0.125 3.484375,0.125 c 1.375,0 2.59375,-1.171875 2.59375,-2.703125 0,-1.515625 -1.125,-2.6875 -2.4375,-2.6875 -1.046875,0 -1.609375,0.75 -1.640625,0.796875 v -0.796875 l -1.671875,0.125 v 0.34375 c 0.84375,0 0.921875,0.09375 0.921875,0.609375 v 5.625 c 0,0.53125 -0.140625,0.53125 -0.921875,0.53125 V 2.3125 C 0.640625,2.296875 1.296875,2.296875 1.625,2.296875 c 0.34375,0 1,0 1.296875,0.015625 z M 2.015625,-3.8125 c 0,-0.234375 0,-0.234375 0.140625,-0.4375 0.359375,-0.53125 0.9375,-0.765625 1.390625,-0.765625 0.90625,0 1.609375,1.09375 1.609375,2.4375 0,1.421875 -0.8125,2.453125 -1.71875,2.453125 -0.375,0 -0.71875,-0.15625 -0.96875,-0.375 C 2.203125,-0.78125 2.015625,-1.015625 2.015625,-1.34375 Z m 0,0"
               style="stroke:none"
               inkscape:connector-curvature="0" />
          </symbol>
        </g>
      </defs>
      <g
         id="lx-text1078-surface1">
        <g
           id="g2747"
           style="fill:#000000;fill-opacity:1">
          <use
             id="use2735"
             y="0"
             x="0"
             xlink:href="#lx-text1078-glyph0-1"
             width="100%"
             height="100%" />
          <use
             id="use2737"
             y="0"
             x="9.1050797"
             xlink:href="#lx-text1078-glyph0-2"
             width="100%"
             height="100%" />
          <use
             id="use2739"
             y="0"
             x="15.608709"
             xlink:href="#lx-text1078-glyph0-3"
             width="100%"
             height="100%" />
          <use
             id="use2741"
             y="0"
             x="20.161249"
             xlink:href="#lx-text1078-glyph0-4"
             width="100%"
             height="100%" />
          <use
             id="use2743"
             y="0"
             x="26.664879"
             xlink:href="#lx-text1078-glyph0-2"
             width="100%"
             height="100%" />
          <use
             id="use2745"
             y="0"
             x="33.168507"
             xlink:href="#lx-text1078-glyph0-3"
             width="100%"
             height="100%" />
        </g>
      </g>
    </g>
    <g
       id="lx-text1082"
       transform="matrix(0.352778,0,0,0.352778,3.525108,255.09877)">
      <defs
         id="defs2771">
        <g
           id="g2769">
          <symbol
             id="lx-text1082-glyph0-0"
             overflow="visible"
             style="overflow:visible">
            <path
               id="path2751"
               d=""
               style="stroke:none"
               inkscape:connector-curvature="0" />
          </symbol>
          <symbol
             id="lx-text1082-glyph0-1"
             overflow="visible"
             style="overflow:visible">
            <path
               id="path2754"
               d="m 2.59375,-7.25 c 0,-0.453125 0.03125,-0.5625 0.9375,-0.5625 H 3.796875 V -8.15625 C 3.5,-8.140625 2.46875,-8.140625 2.109375,-8.140625 c -0.359375,0 -1.390625,0 -1.671875,-0.015625 v 0.34375 h 0.25 c 0.90625,0 0.9375,0.109375 0.9375,0.5625 v 6.34375 c 0,0.4375 -0.03125,0.5625 -0.9375,0.5625 h -0.25 V 0 c 0.28125,-0.03125 1.3125,-0.03125 1.671875,-0.03125 0.359375,0 1.390625,0 1.6875,0.03125 V -0.34375 H 3.53125 c -0.90625,0 -0.9375,-0.125 -0.9375,-0.5625 z m 0,0"
               style="stroke:none"
               inkscape:connector-curvature="0" />
          </symbol>
          <symbol
             id="lx-text1082-glyph0-2"
             overflow="visible"
             style="overflow:visible">
            <path
               id="path2757"
               d="m 5.3125,-2.90625 c 0,-1.109375 0,-1.4375 -0.265625,-1.828125 -0.34375,-0.46875 -0.90625,-0.53125 -1.3125,-0.53125 -1.171875,0 -1.625,0.984375 -1.71875,1.21875 v -1.21875 l -1.640625,0.125 v 0.34375 c 0.8125,0 0.921875,0.09375 0.921875,0.671875 v 3.234375 c 0,0.546875 -0.140625,0.546875 -0.921875,0.546875 V 0 c 0.3125,-0.03125 0.96875,-0.03125 1.296875,-0.03125 0.34375,0 1,0 1.296875,0.03125 v -0.34375 c -0.75,0 -0.90625,0 -0.90625,-0.546875 v -2.21875 c 0,-1.25 0.828125,-1.921875 1.578125,-1.921875 0.734375,0 0.90625,0.609375 0.90625,1.34375 v 2.796875 c 0,0.546875 -0.140625,0.546875 -0.90625,0.546875 V 0 c 0.296875,-0.03125 0.953125,-0.03125 1.28125,-0.03125 0.34375,0 1,0 1.3125,0.03125 v -0.34375 c -0.609375,0 -0.90625,0 -0.921875,-0.359375 z m 0,0"
               style="stroke:none"
               inkscape:connector-curvature="0" />
          </symbol>
          <symbol
             id="lx-text1082-glyph0-3"
             overflow="visible"
             style="overflow:visible">
            <path
               id="path2760"
               d="m 2.921875,1.96875 c -0.765625,0 -0.90625,0 -0.90625,-0.53125 V -0.640625 C 2.234375,-0.34375 2.71875,0.125 3.484375,0.125 c 1.375,0 2.59375,-1.171875 2.59375,-2.703125 0,-1.515625 -1.125,-2.6875 -2.4375,-2.6875 -1.046875,0 -1.609375,0.75 -1.640625,0.796875 v -0.796875 l -1.671875,0.125 v 0.34375 c 0.84375,0 0.921875,0.09375 0.921875,0.609375 v 5.625 c 0,0.53125 -0.140625,0.53125 -0.921875,0.53125 V 2.3125 C 0.640625,2.296875 1.296875,2.296875 1.625,2.296875 c 0.34375,0 1,0 1.296875,0.015625 z M 2.015625,-3.8125 c 0,-0.234375 0,-0.234375 0.140625,-0.4375 0.359375,-0.53125 0.9375,-0.765625 1.390625,-0.765625 0.90625,0 1.609375,1.09375 1.609375,2.4375 0,1.421875 -0.8125,2.453125 -1.71875,2.453125 -0.375,0 -0.71875,-0.15625 -0.96875,-0.375 C 2.203125,-0.78125 2.015625,-1.015625 2.015625,-1.34375 Z m 0,0"
               style="stroke:none"
               inkscape:connector-curvature="0" />
          </symbol>
          <symbol
             id="lx-text1082-glyph0-4"
             overflow="visible"
             style="overflow:visible">
            <path
               id="path2763"
               d="m 3.640625,-5.140625 v 0.34375 c 0.8125,0 0.90625,0.09375 0.90625,0.671875 v 2.140625 C 4.546875,-0.96875 4,-0.125 3.109375,-0.125 2.125,-0.125 2.0625,-0.6875 2.0625,-1.3125 v -3.953125 l -1.6875,0.125 v 0.34375 c 0.921875,0 0.921875,0.046875 0.921875,1.109375 v 1.78125 c 0,0.75 0,1.171875 0.359375,1.578125 C 1.9375,-0.03125 2.421875,0.125 3.03125,0.125 c 0.203125,0 0.59375,0 1,-0.359375 C 4.375,-0.5 4.5625,-0.953125 4.5625,-0.953125 V 0.125 L 6.234375,0 v -0.34375 c -0.8125,0 -0.921875,-0.09375 -0.921875,-0.671875 v -4.25 z m 0,0"
               style="stroke:none"
               inkscape:connector-curvature="0" />
          </symbol>
          <symbol
             id="lx-text1082-glyph0-5"
             overflow="visible"
             style="overflow:visible">
            <path
               id="path2766"
               d="M 2.015625,-4.8125 H 3.6875 V -5.15625 H 2.015625 v -2.1875 H 1.75 C 1.734375,-6.234375 1.296875,-5.078125 0.21875,-5.046875 V -4.8125 h 1.015625 v 3.328125 c 0,1.328125 0.875,1.609375 1.515625,1.609375 0.75,0 1.140625,-0.75 1.140625,-1.609375 V -2.15625 h -0.25 V -1.5 c 0,0.859375 -0.359375,1.359375 -0.8125,1.359375 -0.8125,0 -0.8125,-1.109375 -0.8125,-1.3125 z m 0,0"
               style="stroke:none"
               inkscape:connector-curvature="0" />
          </symbol>
        </g>
      </defs>
      <g
         id="lx-text1082-surface1">
        <g
           id="g2783"
           style="fill:#000000;fill-opacity:1">
          <use
             id="use2773"
             y="0"
             x="0"
             xlink:href="#lx-text1082-glyph0-1"
             width="100%"
             height="100%" />
          <use
             id="use2775"
             y="0"
             x="4.2225771"
             xlink:href="#lx-text1082-glyph0-2"
             width="100%"
             height="100%" />
          <use
             id="use2777"
             y="0"
             x="10.726205"
             xlink:href="#lx-text1082-glyph0-3"
             width="100%"
             height="100%" />
          <use
             id="use2779"
             y="0"
             x="17.229834"
             xlink:href="#lx-text1082-glyph0-4"
             width="100%"
             height="100%" />
          <use
             id="use2781"
             y="0"
             x="23.733463"
             xlink:href="#lx-text1082-glyph0-5"
             width="100%"
             height="100%" />
        </g>
      </g>
    </g>
    <g
       id="lx-text1086"
       transform="matrix(0.352778,0,0,0.352778,40.655131,259.24554)">
      <defs
         id="defs2807">
        <g
           id="g2805">
          <symbol
             id="lx-text1086-glyph0-0"
             overflow="visible"
             style="overflow:visible">
            <path
               id="path2787"
               d=""
               style="stroke:none"
               inkscape:connector-curvature="0" />
          </symbol>
          <symbol
             id="lx-text1086-glyph0-1"
             overflow="visible"
             style="overflow:visible">
            <path
               id="path2790"
               d="M 2.75,-7.9375 C 2.671875,-8.15625 2.65625,-8.15625 2.375,-8.15625 H 0.53125 v 0.34375 h 0.234375 c 0.859375,0 0.890625,0.109375 0.890625,0.5625 v 6.015625 c 0,0.328125 0,0.890625 -1.125,0.890625 V 0 c 0.3125,-0.03125 0.9375,-0.03125 1.28125,-0.03125 0.328125,0 0.953125,0 1.265625,0.03125 v -0.34375 c -1.125,0 -1.125,-0.5625 -1.125,-0.890625 V -7.75 L 4.84375,-0.234375 C 4.890625,-0.09375 4.921875,0 5.046875,0 5.15625,0 5.171875,-0.0625 5.25,-0.234375 L 8.15625,-7.8125 v 6.90625 c 0,0.4375 -0.03125,0.5625 -0.890625,0.5625 H 7.03125 V 0 c 0.265625,-0.03125 1.234375,-0.03125 1.578125,-0.03125 0.34375,0 1.296875,0 1.578125,0.03125 v -0.34375 h -0.25 c -0.859375,0 -0.890625,-0.125 -0.890625,-0.5625 V -7.25 c 0,-0.453125 0.03125,-0.5625 0.890625,-0.5625 h 0.25 V -8.15625 H 8.328125 c -0.265625,0 -0.265625,0 -0.375,0.234375 L 5.359375,-1.125 Z m 0,0"
               style="stroke:none"
               inkscape:connector-curvature="0" />
          </symbol>
          <symbol
             id="lx-text1086-glyph0-2"
             overflow="visible"
             style="overflow:visible">
            <path
               id="path2793"
               d="m 5.484375,-2.5625 c 0,-1.53125 -1.171875,-2.765625 -2.5625,-2.765625 -1.421875,0 -2.5625,1.265625 -2.5625,2.765625 0,1.53125 1.1875,2.6875 2.5625,2.6875 1.40625,0 2.5625,-1.171875 2.5625,-2.6875 z m -2.5625,2.421875 c -0.4375,0 -0.96875,-0.1875 -1.3125,-0.78125 -0.328125,-0.53125 -0.34375,-1.234375 -0.34375,-1.75 0,-0.453125 0,-1.171875 0.375,-1.71875 C 1.96875,-4.90625 2.5,-5.09375 2.921875,-5.09375 c 0.453125,0 0.96875,0.21875 1.28125,0.6875 0.375,0.546875 0.375,1.296875 0.375,1.734375 0,0.421875 0,1.171875 -0.3125,1.734375 C 3.9375,-0.375 3.375,-0.140625 2.921875,-0.140625 Z m 0,0"
               style="stroke:none"
               inkscape:connector-curvature="0" />
          </symbol>
          <symbol
             id="lx-text1086-glyph0-3"
             overflow="visible"
             style="overflow:visible">
            <path
               id="path2796"
               d="M 3.578125,-8.15625 V -7.8125 C 4.40625,-7.8125 4.5,-7.734375 4.5,-7.140625 V -4.5 C 4.25,-4.859375 3.734375,-5.265625 3,-5.265625 c -1.390625,0 -2.578125,1.171875 -2.578125,2.703125 0,1.515625 1.125,2.6875 2.453125,2.6875 0.90625,0 1.421875,-0.609375 1.59375,-0.828125 V 0.125 L 6.15625,0 V -0.34375 C 5.34375,-0.34375 5.25,-0.4375 5.25,-1.015625 v -7.28125 z m 0.890625,6.75 c 0,0.21875 0,0.265625 -0.171875,0.515625 -0.28125,0.421875 -0.765625,0.765625 -1.375,0.765625 -0.296875,0 -1.59375,-0.109375 -1.59375,-2.4375 0,-0.859375 0.140625,-1.328125 0.40625,-1.734375 0.234375,-0.359375 0.71875,-0.734375 1.3125,-0.734375 0.75,0 1.15625,0.53125 1.28125,0.734375 0.140625,0.203125 0.140625,0.21875 0.140625,0.4375 z m 0,0"
               style="stroke:none"
               inkscape:connector-curvature="0" />
          </symbol>
          <symbol
             id="lx-text1086-glyph0-4"
             overflow="visible"
             style="overflow:visible">
            <path
               id="path2799"
               d="m 4.578125,-2.765625 c 0.265625,0 0.28125,0 0.28125,-0.234375 0,-1.203125 -0.640625,-2.328125 -2.09375,-2.328125 -1.359375,0 -2.40625,1.234375 -2.40625,2.703125 0,1.578125 1.21875,2.75 2.546875,2.75 1.421875,0 1.953125,-1.296875 1.953125,-1.546875 0,-0.078125 -0.046875,-0.125 -0.125,-0.125 -0.09375,0 -0.125,0.0625 -0.140625,0.125 -0.3125,1 -1.109375,1.28125 -1.625,1.28125 -0.5,0 -1.703125,-0.34375 -1.703125,-2.40625 v -0.21875 z M 1.28125,-3 c 0.09375,-1.875 1.140625,-2.09375 1.484375,-2.09375 1.28125,0 1.34375,1.6875 1.359375,2.09375 z m 0,0"
               style="stroke:none"
               inkscape:connector-curvature="0" />
          </symbol>
          <symbol
             id="lx-text1086-glyph0-5"
             overflow="visible"
             style="overflow:visible">
            <path
               id="path2802"
               d="M 2.0625,-8.296875 0.390625,-8.15625 v 0.34375 c 0.8125,0 0.90625,0.078125 0.90625,0.671875 v 6.25 c 0,0.546875 -0.125,0.546875 -0.90625,0.546875 V 0 c 0.34375,-0.03125 0.921875,-0.03125 1.28125,-0.03125 0.359375,0 0.953125,0 1.296875,0.03125 v -0.34375 c -0.765625,0 -0.90625,0 -0.90625,-0.546875 z m 0,0"
               style="stroke:none"
               inkscape:connector-curvature="0" />
          </symbol>
        </g>
      </defs>
      <g
         id="lx-text1086-surface1">
        <g
           id="g2813"
           style="fill:#000000;fill-opacity:1">
          <use
             id="use2809"
             y="0"
             x="0"
             xlink:href="#lx-text1086-glyph0-1"
             width="100%"
             height="100%" />
          <use
             id="use2811"
             y="0"
             x="10.726205"
             xlink:href="#lx-text1086-glyph0-2"
             width="100%"
             height="100%" />
        </g>
        <g
           id="g2821"
           style="fill:#000000;fill-opacity:1">
          <use
             id="use2815"
             y="0"
             x="16.902262"
             xlink:href="#lx-text1086-glyph0-3"
             width="100%"
             height="100%" />
          <use
             id="use2817"
             y="0"
             x="23.405891"
             xlink:href="#lx-text1086-glyph0-4"
             width="100%"
             height="100%" />
          <use
             id="use2819"
             y="0"
             x="28.608793"
             xlink:href="#lx-text1086-glyph0-5"
             width="100%"
             height="100%" />
        </g>
      </g>
    </g>
    <g
       id="lx-text1094"
       transform="matrix(0.352778,0,0,0.352778,42.832705,292.85598)">
      <defs
         id="defs2924">
        <g
           id="g2922">
          <symbol
             id="lx-text1094-glyph0-0"
             overflow="visible"
             style="overflow:visible">
            <path
               id="path2901"
               d=""
               style="stroke:none"
               inkscape:connector-curvature="0" />
          </symbol>
          <symbol
             id="lx-text1094-glyph0-1"
             overflow="visible"
             style="overflow:visible">
            <path
               id="path2904"
               d="M 6.390625,-7.34375 C 6.484375,-7.703125 6.5,-7.8125 7.09375,-7.8125 c 0.1875,0 0.3125,0 0.3125,-0.21875 0,-0.125 -0.109375,-0.125 -0.15625,-0.125 -0.203125,0 -0.4375,0.015625 -0.65625,0.015625 H 5.9375 c -0.5,0 -1.03125,-0.015625 -1.53125,-0.015625 -0.109375,0 -0.25,0 -0.25,0.203125 0,0.125 0.09375,0.125 0.09375,0.140625 h 0.296875 c 0.96875,0 0.96875,0.09375 0.96875,0.265625 0,0.015625 0,0.09375 -0.046875,0.296875 l -1.375,5.453125 c -0.3125,1.21875 -1.125,1.8125 -1.6875,1.8125 -0.40625,0 -0.984375,-0.1875 -1.125,-0.828125 0.046875,0.015625 0.109375,0.03125 0.15625,0.03125 0.390625,0 0.703125,-0.359375 0.703125,-0.703125 0,-0.1875 -0.125,-0.4375 -0.484375,-0.4375 -0.203125,0 -0.71875,0.109375 -0.71875,0.890625 0,0.75 0.625,1.28125 1.484375,1.28125 1.09375,0 2.265625,-0.828125 2.546875,-1.953125 z m 0,0"
               style="stroke:none"
               inkscape:connector-curvature="0" />
          </symbol>
          <symbol
             id="lx-text1094-glyph1-0"
             overflow="visible"
             style="overflow:visible">
            <path
               id="path2907"
               d=""
               style="stroke:none"
               inkscape:connector-curvature="0" />
          </symbol>
          <symbol
             id="lx-text1094-glyph1-1"
             overflow="visible"
             style="overflow:visible">
            <path
               id="path2910"
               d="m 3.890625,2.90625 c 0,-0.03125 0,-0.0625 -0.203125,-0.265625 C 2.484375,1.4375 1.8125,-0.53125 1.8125,-2.96875 c 0,-2.328125 0.5625,-4.328125 1.953125,-5.734375 0.125,-0.109375 0.125,-0.125 0.125,-0.171875 0,-0.0625 -0.0625,-0.09375 -0.109375,-0.09375 -0.15625,0 -1.140625,0.859375 -1.71875,2.03125 -0.609375,1.21875 -0.890625,2.484375 -0.890625,3.96875 0,1.0625 0.171875,2.484375 0.78125,3.75 C 2.671875,2.21875 3.640625,3 3.78125,3 3.828125,3 3.890625,2.96875 3.890625,2.90625 Z m 0,0"
               style="stroke:none"
               inkscape:connector-curvature="0" />
          </symbol>
          <symbol
             id="lx-text1094-glyph1-2"
             overflow="visible"
             style="overflow:visible">
            <path
               id="path2913"
               d="M 3.375,-2.96875 C 3.375,-3.890625 3.25,-5.359375 2.578125,-6.75 1.875,-8.1875 0.890625,-8.96875 0.765625,-8.96875 c -0.046875,0 -0.109375,0.03125 -0.109375,0.09375 0,0.046875 0,0.0625 0.203125,0.265625 1.203125,1.203125 1.859375,3.1875 1.859375,5.625 0,2.3125 -0.5625,4.3125 -1.9375,5.71875 C 0.65625,2.84375 0.65625,2.875 0.65625,2.90625 0.65625,2.96875 0.71875,3 0.765625,3 0.921875,3 1.90625,2.140625 2.484375,0.96875 3.09375,-0.25 3.375,-1.546875 3.375,-2.96875 Z m 0,0"
               style="stroke:none"
               inkscape:connector-curvature="0" />
          </symbol>
          <symbol
             id="lx-text1094-glyph2-0"
             overflow="visible"
             style="overflow:visible">
            <path
               id="path2916"
               d=""
               style="stroke:none"
               inkscape:connector-curvature="0" />
          </symbol>
          <symbol
             id="lx-text1094-glyph2-1"
             overflow="visible"
             style="overflow:visible">
            <path
               id="path2919"
               d="m 2.296875,-2.984375 c 0,-0.34375 -0.28125,-0.640625 -0.640625,-0.640625 -0.34375,0 -0.625,0.296875 -0.625,0.640625 0,0.34375 0.28125,0.625 0.625,0.625 0.359375,0 0.640625,-0.28125 0.640625,-0.625 z m 0,0"
               style="stroke:none"
               inkscape:connector-curvature="0" />
          </symbol>
        </g>
      </defs>
      <g
         id="lx-text1094-surface1">
        <g
           id="g2928"
           style="fill:#000000;fill-opacity:1">
          <use
             id="use2926"
             y="0"
             x="0"
             xlink:href="#lx-text1094-glyph0-1"
             width="100%"
             height="100%" />
        </g>
        <g
           id="g2932"
           style="fill:#000000;fill-opacity:1">
          <use
             id="use2930"
             y="0"
             x="7.5770001"
             xlink:href="#lx-text1094-glyph1-1"
             width="100%"
             height="100%" />
        </g>
        <g
           id="g2936"
           style="fill:#000000;fill-opacity:1">
          <use
             id="use2934"
             y="0"
             x="12.13"
             xlink:href="#lx-text1094-glyph2-1"
             width="100%"
             height="100%" />
        </g>
        <g
           id="g2940"
           style="fill:#000000;fill-opacity:1">
          <use
             id="use2938"
             y="0"
             x="15.451"
             xlink:href="#lx-text1094-glyph1-2"
             width="100%"
             height="100%" />
        </g>
      </g>
    </g>
  </g>
</svg>
