\relax 
\providecommand\hyper@newdestlabel[2]{}
\citation{WorldEnergyOutlook}
\@writefile{toc}{\contentsline {chapter}{\numberline {1}Introduction}{1}{chapter.1}}
\@writefile{lof}{\addvspace {10\p@ }}
\@writefile{lot}{\addvspace {10\p@ }}
\@writefile{loa}{\addvspace {10\p@ }}
\@writefile{toc}{\contentsline {section}{\numberline {1.1}Introduction}{1}{section.1.1}}
\citation{turingComputingMachineryIntelligence1950}
\@writefile{toc}{\contentsline {section}{\numberline {1.2}Objective}{2}{section.1.2}}
\newlabel{sec:objective}{{1.2}{2}{Objective}{section.1.2}{}}
\@writefile{toc}{\contentsline {section}{\numberline {1.3}Theory}{2}{section.1.3}}
\@writefile{toc}{\contentsline {subsection}{\numberline {1.3.1}Learning}{2}{subsection.1.3.1}}
\@writefile{toc}{\contentsline {subsection}{\numberline {1.3.2}Supervised Learning}{3}{subsection.1.3.2}}
\newlabel{sec:sup_learning}{{1.3.2}{3}{Supervised Learning}{subsection.1.3.2}{}}
\@writefile{lof}{\contentsline {figure}{\numberline {1.1}{\ignorespaces Simplified Supervised Learning Schematic\relax }}{4}{figure.caption.5}}
\providecommand*\caption@xref[2]{\@setref\relax\@undefined{#1}}
\newlabel{fig:sup_learning}{{1.1}{4}{Simplified Supervised Learning Schematic\relax }{figure.caption.5}{}}
\@writefile{toc}{\contentsline {subsection}{\numberline {1.3.3}Unsupervised Learning}{4}{subsection.1.3.3}}
\newlabel{sec:unsup_learning}{{1.3.3}{4}{Unsupervised Learning}{subsection.1.3.3}{}}
\@writefile{toc}{\contentsline {section}{\numberline {1.4}Artificial Neural Networks}{4}{section.1.4}}
\newlabel{sec:ann}{{1.4}{4}{Artificial Neural Networks}{section.1.4}{}}
\citation{mccullochLogicalCalculusIdeas1943}
\citation{morrisHebbOrganizationBehavior1999}
\citation{frankrosenblattPerceptronPerceivingRecognizing1957}
\@writefile{lof}{\contentsline {figure}{\numberline {1.2}{\ignorespaces Structure of a Neuron and its Connections.\relax }}{5}{figure.caption.6}}
\newlabel{fig:neurons_2}{{1.2}{5}{Structure of a Neuron and its Connections.\relax }{figure.caption.6}{}}
