\relax 
\providecommand\hyper@newdestlabel[2]{}
\@writefile{toc}{\contentsline {chapter}{Appendix \numberline {B}Transition Time Estimation ``Proof''}{80}{Appendix.1.B}}
\@writefile{lof}{\addvspace {10\p@ }}
\@writefile{lot}{\addvspace {10\p@ }}
\@writefile{loa}{\addvspace {10\p@ }}
\newlabel{app:tte}{{B}{80}{Transition Time Estimation ``Proof''}{Appendix.1.B}{}}
\newlabel{tteP:initial_derivative_prob}{{B.4}{81}{Transition Time Estimation ``Proof''}{equation.1.B.0.4}{}}
\@setckpt{tte}{
\setcounter{page}{83}
\setcounter{equation}{8}
\setcounter{enumi}{0}
\setcounter{enumii}{0}
\setcounter{enumiii}{0}
\setcounter{enumiv}{0}
\setcounter{footnote}{0}
\setcounter{mpfootnote}{0}
\setcounter{part}{0}
\setcounter{chapter}{2}
\setcounter{section}{0}
\setcounter{subsection}{0}
\setcounter{subsubsection}{0}
\setcounter{paragraph}{0}
\setcounter{subparagraph}{0}
\setcounter{figure}{0}
\setcounter{table}{0}
\setcounter{NAT@ctr}{36}
\setcounter{keywords}{3}
\setcounter{parentequation}{0}
\setcounter{Item}{0}
\setcounter{Hfootnote}{0}
\setcounter{bookmark@seq@number}{51}
\setcounter{float@type}{4}
\setcounter{caption@flags}{0}
\setcounter{ContinuedFloat}{0}
\setcounter{subfigure}{0}
\setcounter{subtable}{0}
\setcounter{AM@survey}{0}
\setcounter{nlinenum}{0}
\setcounter{@pps}{1}
\setcounter{@ppsavesec}{4}
\setcounter{@ppsaveapp}{0}
\setcounter{AlgoLine}{21}
\setcounter{algocfline}{3}
\setcounter{algocfproc}{3}
\setcounter{algocf}{3}
\setcounter{theorem}{0}
\setcounter{lemma}{1}
\setcounter{section@level}{0}
}
