\relax 
\providecommand\hyper@newdestlabel[2]{}
\citation{WorldEnergyOutlook}
\@writefile{lof}{\addvspace {10\p@ }}
\@writefile{lot}{\addvspace {10\p@ }}
\@writefile{loa}{\addvspace {10\p@ }}
\newlabel{sec:objective}{{\rEfLiNK{x1-70002}{\csname :autoref\endcsname{section}1.2}}{\rEfLiNK{x1-70002}{\csname :autoref\endcsname{section}3}}{\rEfLiNK{x1-70002}{\csname :autoref\endcsname{section}Objective}}{section.1}{}}
\citation{turingComputingMachineryIntelligence1950}
\newlabel{sec:sup_learning}{{\rEfLiNK{x1-100002}{\csname :autoref\endcsname{subsection}1.3.2}}{\rEfLiNK{x1-100002}{\csname :autoref\endcsname{subsection}5}}{\rEfLiNK{x1-100002}{\csname :autoref\endcsname{subsection}Supervised Learning}}{subsection.1}{}}
\providecommand*\caption@xref[2]{\@setref\relax\@undefined{#1}}
\newlabel{fig:sup_learning}{{\rEfLiNK{x1-10001r1}{\csname :autoref\endcsname{figure}1.1}}{\rEfLiNK{x1-10001r1}{\csname :autoref\endcsname{figure}7}}{\rEfLiNK{x1-10001r1}{\csname :autoref\endcsname{figure}Simplified Supervised Learning Schematic}}{figure.1}{}}
\newlabel{sec:unsup_learning}{{\rEfLiNK{x1-110003}{\csname :autoref\endcsname{subsection}1.3.3}}{\rEfLiNK{x1-110003}{\csname :autoref\endcsname{subsection}8}}{\rEfLiNK{x1-110003}{\csname :autoref\endcsname{subsection}Unsupervised Learning}}{subsection.1}{}}
\newlabel{sec:ann}{{\rEfLiNK{x1-120004}{\csname :autoref\endcsname{section}1.4}}{\rEfLiNK{x1-120004}{\csname :autoref\endcsname{section}8}}{\rEfLiNK{x1-120004}{\csname :autoref\endcsname{section}Artificial Neural Networks}}{section.1}{}}
\newlabel{fig:neurons_2}{{\rEfLiNK{x1-12001r2}{\csname :autoref\endcsname{figure}1.2}}{\rEfLiNK{x1-12001r2}{\csname :autoref\endcsname{figure}10}}{\rEfLiNK{x1-12001r2}{\csname :autoref\endcsname{figure}Structure of a Neuron and its Connections.}}{figure.1}{}}
\citation{mccullochLogicalCalculusIdeas1943}
\citation{morrisHebbOrganizationBehavior1999}
\citation{frankrosenblattPerceptronPerceivingRecognizing1957}
\newlabel{sec:perceptron}{{\rEfLiNK{x1-130005}{\csname :autoref\endcsname{section}1.5}}{\rEfLiNK{x1-130005}{\csname :autoref\endcsname{section}11}}{\rEfLiNK{x1-130005}{\csname :autoref\endcsname{section}Perceptron}}{section.1}{}}
\citation{wikimediacommonsNeuron2006}
\newlabel{fig:neurons_mod}{{\rEfLiNK{x1-13001r3}{\csname :autoref\endcsname{figure}1.3}}{\rEfLiNK{x1-13001r3}{\csname :autoref\endcsname{figure}13}}{\rEfLiNK{x1-13001r3}{\csname :autoref\endcsname{figure}Structure of a Neuron with Abstract Inputs and Outputs. Adapted from\cite  {wikimediacommonsNeuron2006}.}}{figure.1}{}}
\newlabel{fig:perceptron}{{\rEfLiNK{x1-13004r4}{\csname :autoref\endcsname{figure}1.4}}{\rEfLiNK{x1-13004r4}{\csname :autoref\endcsname{figure}17}}{\rEfLiNK{x1-13004r4}{\csname :autoref\endcsname{figure}Complete Perceptron Mathematical Model.}}{figure.1}{}}
\newlabel{sec:MLP}{{\rEfLiNK{x1-140001}{\csname :autoref\endcsname{subsection}1.5.1}}{\rEfLiNK{x1-140001}{\csname :autoref\endcsname{subsection}18}}{\rEfLiNK{x1-140001}{\csname :autoref\endcsname{subsection}Multi Layer Perceptron}}{subsection.1}{}}
\newlabel{fig:ex_mlp}{{\rEfLiNK{x1-14001r5}{\csname :autoref\endcsname{figure}1.5}}{\rEfLiNK{x1-14001r5}{\csname :autoref\endcsname{figure}20}}{\rEfLiNK{x1-14001r5}{\csname :autoref\endcsname{figure}Multi Layer \textit  {Perceptron} Schematic.}}{figure.1}{}}
\citation{rumelhartLearningRepresentationsBackpropagating1986}
\citation{rumelhartLearningRepresentationsBackpropagating1986}
\newlabel{sec:backpropagation}{{\rEfLiNK{x1-150002}{\csname :autoref\endcsname{subsection}1.5.2}}{\rEfLiNK{x1-150002}{\csname :autoref\endcsname{subsection}21}}{\rEfLiNK{x1-150002}{\csname :autoref\endcsname{subsection}Backpropagation}}{subsection.1}{}}
\newlabel{eq:backprop_1}{{\rEfLiNK{x1-15003r5}{\csname :autoref\endcsname{equation}1.5}}{\rEfLiNK{x1-15003r5}{\csname :autoref\endcsname{equation}22}}{\rEfLiNK{x1-15003r5}{\csname :autoref\endcsname{equation}equation}}{equation.1}{}}
\newlabel{eq:backprop_2}{{\rEfLiNK{x1-15004r6}{\csname :autoref\endcsname{equation}1.6}}{\rEfLiNK{x1-15004r6}{\csname :autoref\endcsname{equation}23}}{\rEfLiNK{x1-15004r6}{\csname :autoref\endcsname{equation}equation}}{equation.1}{}}
\newlabel{eq:backprop_3}{{\rEfLiNK{x1-15005r7}{\csname :autoref\endcsname{equation}1.7}}{\rEfLiNK{x1-15005r7}{\csname :autoref\endcsname{equation}23}}{\rEfLiNK{x1-15005r7}{\csname :autoref\endcsname{equation}equation}}{equation.1}{}}
\newlabel{eq:delta_def}{{\rEfLiNK{x1-15006r8}{\csname :autoref\endcsname{equation}1.8}}{\rEfLiNK{x1-15006r8}{\csname :autoref\endcsname{equation}23}}{\rEfLiNK{x1-15006r8}{\csname :autoref\endcsname{equation}equation}}{equation.1}{}}
\newlabel{eq:backprop_4}{{\rEfLiNK{x1-15007r9}{\csname :autoref\endcsname{equation}1.9}}{\rEfLiNK{x1-15007r9}{\csname :autoref\endcsname{equation}24}}{\rEfLiNK{x1-15007r9}{\csname :autoref\endcsname{equation}equation}}{equation.1}{}}
\newlabel{eq:backprop_def_1}{{\rEfLiNK{x1-15010r12}{\csname :autoref\endcsname{equation}1.12}}{\rEfLiNK{x1-15010r12}{\csname :autoref\endcsname{equation}25}}{\rEfLiNK{x1-15010r12}{\csname :autoref\endcsname{equation}equation}}{equation.1}{}}
\newlabel{eq:backprop_def_2}{{\rEfLiNK{x1-15011r13}{\csname :autoref\endcsname{equation}1.13}}{\rEfLiNK{x1-15011r13}{\csname :autoref\endcsname{equation}25}}{\rEfLiNK{x1-15011r13}{\csname :autoref\endcsname{equation}equation}}{equation.1}{}}
\newlabel{eq:backprop_help_1}{{\rEfLiNK{x1-15012r14}{\csname :autoref\endcsname{equation}1.14}}{\rEfLiNK{x1-15012r14}{\csname :autoref\endcsname{equation}26}}{\rEfLiNK{x1-15012r14}{\csname :autoref\endcsname{equation}equation}}{equation.1}{}}
\newlabel{eq:backprop_help_2}{{\rEfLiNK{x1-15013r15}{\csname :autoref\endcsname{equation}1.15}}{\rEfLiNK{x1-15013r15}{\csname :autoref\endcsname{equation}26}}{\rEfLiNK{x1-15013r15}{\csname :autoref\endcsname{equation}equation}}{equation.1}{}}
\newlabel{alg:backpropagation}{{\rEfLiNK{x1-15015r1}{\csname :autoref\endcsname{equation}1}}{\rEfLiNK{x1-15015r1}{\csname :autoref\endcsname{equation}29}}{\rEfLiNK{x1-15015r1}{\csname :autoref\endcsname{equation}equation}}{equation.1}{}}
\newlabel{eq:rmsprop_simple}{{\rEfLiNK{x1-15028r16}{\csname :autoref\endcsname{equation}1.16}}{\rEfLiNK{x1-15028r16}{\csname :autoref\endcsname{equation}31}}{\rEfLiNK{x1-15028r16}{\csname :autoref\endcsname{equation}equation}}{equation.1}{}}
\newlabel{alg:rmsprop}{{\rEfLiNK{x1-15031r2}{\csname :autoref\endcsname{equation}2}}{\rEfLiNK{x1-15031r2}{\csname :autoref\endcsname{equation}34}}{\rEfLiNK{x1-15031r2}{\csname :autoref\endcsname{equation}equation}}{equation.1}{}}
\citation{ruderOverviewGradientDescent2016}
\citation{kingmaAdamMethodStochastic2014}
\citation{moreLevenbergMarquardtAlgorithmImplementation1978}
\citation{zeilerADADELTAAdaptiveLearning2012}
\newlabel{eq:adam_FME}{{\rEfLiNK{x1-15055r18}{\csname :autoref\endcsname{equation}1.18}}{\rEfLiNK{x1-15055r18}{\csname :autoref\endcsname{equation}36}}{\rEfLiNK{x1-15055r18}{\csname :autoref\endcsname{equation}equation}}{equation.1}{}}
\newlabel{eq:adam_SME}{{\rEfLiNK{x1-15056r19}{\csname :autoref\endcsname{equation}1.19}}{\rEfLiNK{x1-15056r19}{\csname :autoref\endcsname{equation}36}}{\rEfLiNK{x1-15056r19}{\csname :autoref\endcsname{equation}equation}}{equation.1}{}}
\citation{kingmaAdamMethodStochastic2014}
\newlabel{eq:adam_bias_FME}{{\rEfLiNK{x1-15057r20}{\csname :autoref\endcsname{equation}1.20}}{\rEfLiNK{x1-15057r20}{\csname :autoref\endcsname{equation}37}}{\rEfLiNK{x1-15057r20}{\csname :autoref\endcsname{equation}equation}}{equation.1}{}}
\newlabel{eq:adam_bias_SME}{{\rEfLiNK{x1-15058r21}{\csname :autoref\endcsname{equation}1.21}}{\rEfLiNK{x1-15058r21}{\csname :autoref\endcsname{equation}37}}{\rEfLiNK{x1-15058r21}{\csname :autoref\endcsname{equation}equation}}{equation.1}{}}
\newlabel{alg:adam}{{\rEfLiNK{x1-15087r3}{\csname :autoref\endcsname{equation}3}}{\rEfLiNK{x1-15087r3}{\csname :autoref\endcsname{equation}38}}{\rEfLiNK{x1-15087r3}{\csname :autoref\endcsname{equation}equation}}{equation.1}{}}
\citation{ronnykohaviandbarrybeckerUCIMachineLearning1994}
\citation{ronnykohaviandbarrybeckerUCIMachineLearning1994}
\newlabel{tab:adult_dataset_ex}{{\rEfLiNK{x1-16001r1}{\csname :autoref\endcsname{table}1.1}}{\rEfLiNK{x1-16001r1}{\csname :autoref\endcsname{table}41}}{\rEfLiNK{x1-16001r1}{\csname :autoref\endcsname{table}Partial Data Description and Respective Type From the Adult dataset\cite  {ronnykohaviandbarrybeckerUCIMachineLearning1994}.}}{table.1}{}}
\citation{martinthomaEnglishSigmoidFunction2014}
\newlabel{fig:ex_sigmoid}{{\rEfLiNK{x1-16002r6}{\csname :autoref\endcsname{figure}1.6}}{\rEfLiNK{x1-16002r6}{\csname :autoref\endcsname{figure}44}}{\rEfLiNK{x1-16002r6}{\csname :autoref\endcsname{figure}Example of a Sigmoid Function. Adapted From\cite  {martinthomaEnglishSigmoidFunction2014}.}}{figure.1}{}}
\newlabel{eq:z_score}{{\rEfLiNK{x1-16003r22}{\csname :autoref\endcsname{equation}1.22}}{\rEfLiNK{x1-16003r22}{\csname :autoref\endcsname{equation}45}}{\rEfLiNK{x1-16003r22}{\csname :autoref\endcsname{equation}equation}}{equation.1}{}}
\newlabel{eq:catg_ex_1}{{\rEfLiNK{x1-16004r23}{\csname :autoref\endcsname{equation}1.23}}{\rEfLiNK{x1-16004r23}{\csname :autoref\endcsname{equation}45}}{\rEfLiNK{x1-16004r23}{\csname :autoref\endcsname{equation}equation}}{equation.1}{}}
\newlabel{eq:catg_ex_2}{{\rEfLiNK{x1-16005r24}{\csname :autoref\endcsname{equation}1.24}}{\rEfLiNK{x1-16005r24}{\csname :autoref\endcsname{equation}46}}{\rEfLiNK{x1-16005r24}{\csname :autoref\endcsname{equation}equation}}{equation.1}{}}
\newlabel{eq:catg_ex_3}{{\rEfLiNK{x1-16006r25}{\csname :autoref\endcsname{equation}1.25}}{\rEfLiNK{x1-16006r25}{\csname :autoref\endcsname{equation}46}}{\rEfLiNK{x1-16006r25}{\csname :autoref\endcsname{equation}equation}}{equation.1}{}}
\newlabel{sec:cross_validation}{{\rEfLiNK{x1-170001}{\csname :autoref\endcsname{subsection}1.6.1}}{\rEfLiNK{x1-170001}{\csname :autoref\endcsname{subsection}48}}{\rEfLiNK{x1-170001}{\csname :autoref\endcsname{subsection}\textit  {k}-fold Cross-Validation}}{subsection.1}{}}
\newlabel{fig:ex_k_fold_cross}{{\rEfLiNK{x1-17001r7}{\csname :autoref\endcsname{figure}1.7}}{\rEfLiNK{x1-17001r7}{\csname :autoref\endcsname{figure}50}}{\rEfLiNK{x1-17001r7}{\csname :autoref\endcsname{figure}Example of Cross Validation with 4 Folds.}}{figure.1}{}}
\citation{jorgestolfifromwikimediacommonsFileAxialStress2013}
\newlabel{fig:stress_example}{{\rEfLiNK{x1-18001r8}{\csname :autoref\endcsname{figure}1.8}}{\rEfLiNK{x1-18001r8}{\csname :autoref\endcsname{figure}53}}{\rEfLiNK{x1-18001r8}{\csname :autoref\endcsname{figure}Stress Vector Illustration. Taken from\cite  {jorgestolfifromwikimediacommonsFileAxialStress2013}.}}{figure.1}{}}
\newlabel{eq:stress}{{\rEfLiNK{x1-18002r27}{\csname :autoref\endcsname{equation}1.27}}{\rEfLiNK{x1-18002r27}{\csname :autoref\endcsname{equation}54}}{\rEfLiNK{x1-18002r27}{\csname :autoref\endcsname{equation}equation}}{equation.1}{}}
\citation{igorkokcharovfromwikimediacommonsFileCrackForceLinesPng2018}
\newlabel{fig:stress_crack}{{\rEfLiNK{x1-18003r9}{\csname :autoref\endcsname{figure}1.9}}{\rEfLiNK{x1-18003r9}{\csname :autoref\endcsname{figure}56}}{\rEfLiNK{x1-18003r9}{\csname :autoref\endcsname{figure}Force Lines Within a Cracked Material. Taken from\cite  {igorkokcharovfromwikimediacommonsFileCrackForceLinesPng2018}.}}{figure.1}{}}
\newlabel{fig:stress_strain}{{\rEfLiNK{x1-18004r10}{\csname :autoref\endcsname{figure}1.10}}{\rEfLiNK{x1-18004r10}{\csname :autoref\endcsname{figure}59}}{\rEfLiNK{x1-18004r10}{\csname :autoref\endcsname{figure}A Stress-Strain Curve}}{figure.1}{}}
\citation{josephkaiserUntersuchungenUeberAuftreten1950}
\newlabel{sec:acousticEmission}{{\rEfLiNK{x1-190008}{\csname :autoref\endcsname{section}1.8}}{\rEfLiNK{x1-190008}{\csname :autoref\endcsname{section}60}}{\rEfLiNK{x1-190008}{\csname :autoref\endcsname{section}Acoustic Emission}}{section.1}{}}
\newlabel{fig:tensioned_block}{{\rEfLiNK{x1-19001r11}{\csname :autoref\endcsname{figure}1.11}}{\rEfLiNK{x1-19001r11}{\csname :autoref\endcsname{figure}62}}{\rEfLiNK{x1-19001r11}{\csname :autoref\endcsname{figure}A Schematic Tensioned Block With a Crack Radiating Acoustic Emission.}}{figure.1}{}}
\citation{duneganFractureAnalysisUse1968}
\citation{lindleyAcousticEmissionMonitoring1978}
\citation{niWaveletTransformAcoustic2002}
\citation{josephkaiserUntersuchungenUeberAuftreten1950}
\citation{sunSelfOrganizingMapNeural1999}
\citation{huguetUseAcousticEmission2002a}
\citation{dasilvaPatternRecognitionWeld2004}
\newlabel{sec:bibliographyReview}{{\rEfLiNK{x1-200009}{\csname :autoref\endcsname{section}1.9}}{\rEfLiNK{x1-200009}{\csname :autoref\endcsname{section}63}}{\rEfLiNK{x1-200009}{\csname :autoref\endcsname{section}Bibliography Review}}{section.1}{}}
\citation{dasilvaDetectionPropagationDefects2006}
\citation{pintoUsoRedesNeurais2012}
\citation{carlosfernandocarlimpintoMonitoracaoDefeitosEm2014}
\citation{dasilvaDetectionPropagationDefects2006}
\citation{orlandogeaMonitoramentoPropagacaoDefeitos2015}
\citation{carlosfernandocarlimpintoMonitoracaoDefeitosEm2014}
\citation{orlandogeaMonitoramentoPropagacaoDefeitos2015}
\citation{luizaribeiromarnetMonitoramentoDefeitosEm2018}
\@setckpt{introduction}{
\setcounter{page}{65}
\setcounter{equation}{27}
\setcounter{enumi}{0}
\setcounter{enumii}{0}
\setcounter{enumiii}{0}
\setcounter{enumiv}{0}
\setcounter{footnote}{0}
\setcounter{mpfootnote}{0}
\setcounter{part}{0}
\setcounter{chapter}{1}
\setcounter{section}{9}
\setcounter{subsection}{0}
\setcounter{subsubsection}{0}
\setcounter{paragraph}{0}
\setcounter{subparagraph}{0}
\setcounter{figure}{11}
\setcounter{table}{1}
\setcounter{NAT@ctr}{0}
\setcounter{keywords}{3}
\setcounter{parentequation}{0}
\setcounter{float@type}{4}
\setcounter{caption@flags}{0}
\setcounter{ContinuedFloat}{0}
\setcounter{subfigure}{0}
\setcounter{subtable}{0}
\setcounter{AM@survey}{0}
\setcounter{nlinenum}{0}
\setcounter{@pps}{0}
\setcounter{@ppsavesec}{0}
\setcounter{@ppsaveapp}{0}
\setcounter{AlgoLine}{27}
\setcounter{algocfline}{3}
\setcounter{algocfproc}{3}
\setcounter{algocf}{3}
\setcounter{theorem}{0}
\setcounter{lemma}{0}
\setcounter{section@level}{0}
}
