\relax 
\providecommand\hyper@newdestlabel[2]{}
\citation{charlesworthEngineeringApplicationsUltrasonic2001}
\citation{silkPotentialScatteredDiffracted1975}
\@writefile{lof}{\addvspace {10\p@ }}
\@writefile{lot}{\addvspace {10\p@ }}
\@writefile{loa}{\addvspace {10\p@ }}
\newlabel{sec:AETest}{{\rEfLiNK{x1-220001}{\csname :autoref\endcsname{section}2.1}}{\rEfLiNK{x1-220001}{\csname :autoref\endcsname{section}67}}{\rEfLiNK{x1-220001}{\csname :autoref\endcsname{section}Acoustic Emission Test}}{section.1}{}}
\newlabel{fig:sensor_disposition_CP2}{{\rEfLiNK{x1-22001r1}{\csname :autoref\endcsname{figure}2.1}}{\rEfLiNK{x1-22001r1}{\csname :autoref\endcsname{figure}69}}{\rEfLiNK{x1-22001r1}{\csname :autoref\endcsname{figure}Sensor Array Disposition for Test CP2.}}{figure.1}{}}
\newlabel{fig:sensor_disposition_CP3}{{\rEfLiNK{x1-22002r2}{\csname :autoref\endcsname{figure}2.2}}{\rEfLiNK{x1-22002r2}{\csname :autoref\endcsname{figure}72}}{\rEfLiNK{x1-22002r2}{\csname :autoref\endcsname{figure}Sensor Array Disposition for Test CP3.}}{figure.1}{}}
\citation{physicalacousticsR1520KHz}
\citation{physicalacousticsR15IAST150KHz}
\citation{physicalacousticsWD100900KHz}
\newlabel{tab:sensor_freq}{{\rEfLiNK{x1-22003r1}{\csname :autoref\endcsname{table}2.1}}{\rEfLiNK{x1-22003r1}{\csname :autoref\endcsname{table}75}}{\rEfLiNK{x1-22003r1}{\csname :autoref\endcsname{table}Streaming Sensors Frequency Range.}}{table.1}{}}
\citation{nationalinstrumentsNITDMSFile}
\newlabel{fig:pressure_time_cp2}{{\rEfLiNK{x1-22004r3}{\csname :autoref\endcsname{figure}2.3}}{\rEfLiNK{x1-22004r3}{\csname :autoref\endcsname{figure}78}}{\rEfLiNK{x1-22004r3}{\csname :autoref\endcsname{figure}Pressure and Crack Dimension for Test CP2.}}{figure.1}{}}
\newlabel{fig:pressure_time_cp3}{{\rEfLiNK{x1-22005r4}{\csname :autoref\endcsname{figure}2.4}}{\rEfLiNK{x1-22005r4}{\csname :autoref\endcsname{figure}81}}{\rEfLiNK{x1-22005r4}{\csname :autoref\endcsname{figure}Pressure and Crack Dimension for Test CP3.}}{figure.1}{}}
\newlabel{fig:pressure_time_cp4}{{\rEfLiNK{x1-22006r5}{\csname :autoref\endcsname{figure}2.5}}{\rEfLiNK{x1-22006r5}{\csname :autoref\endcsname{figure}84}}{\rEfLiNK{x1-22006r5}{\csname :autoref\endcsname{figure}Pressure and Crack Dimension for Test CP4.}}{figure.1}{}}
\citation{orlandogeaMonitoramentoPropagacaoDefeitos2015}
\citation{carlosfernandocarlimpintoMonitoracaoDefeitosEm2014}
\newlabel{sec:streamingRawData}{{\rEfLiNK{x1-230002}{\csname :autoref\endcsname{section}2.2}}{\rEfLiNK{x1-230002}{\csname :autoref\endcsname{section}85}}{\rEfLiNK{x1-230002}{\csname :autoref\endcsname{section}Streaming Raw Data}}{section.1}{}}
\newlabel{fig:lamef_mods}{{\rEfLiNK{x1-23001r6}{\csname :autoref\endcsname{figure}2.6}}{\rEfLiNK{x1-23001r6}{\csname :autoref\endcsname{figure}87}}{\rEfLiNK{x1-23001r6}{\csname :autoref\endcsname{figure}Schematic of The Low-Level Modifications Done to Signal Acquisition. With Two Example 16-bit Words (0x3CAB and 0x0E19).}}{figure.1}{}}
\newlabel{tab:streaming_data}{{\rEfLiNK{x1-23002r2}{\csname :autoref\endcsname{table}2.2}}{\rEfLiNK{x1-23002r2}{\csname :autoref\endcsname{table}90}}{\rEfLiNK{x1-23002r2}{\csname :autoref\endcsname{table}Hydrostatic Test Summary}}{table.1}{}}
\newlabel{fig:tdms_example_a}{{\rEfLiNK{x1-23003r1}{\csname :autoref\endcsname{subfigure}2.7a}}{\rEfLiNK{x1-23003r1}{\csname :autoref\endcsname{subfigure}93}}{\rEfLiNK{x1-23003r1}{\csname :autoref\endcsname{subfigure}TDMS File 900, Channel 12.\relax }}{subfigure.1}{}}
\newlabel{sub@fig:tdms_example_a}{{\rEfLiNK{x1-23003ra}{\csname :autoref\endcsname{subfigure}a}}{\rEfLiNK{x1-23003ra}{\csname :autoref\endcsname{subfigure}93}}{\rEfLiNK{x1-23003ra}{\csname :autoref\endcsname{subfigure}TDMS File 900, Channel 12.\relax }}{subfigure.1}{}}
\newlabel{fig:tdms_example_b}{{\rEfLiNK{x1-23004r2}{\csname :autoref\endcsname{subfigure}2.7b}}{\rEfLiNK{x1-23004r2}{\csname :autoref\endcsname{subfigure}93}}{\rEfLiNK{x1-23004r2}{\csname :autoref\endcsname{subfigure}TDMS File 900, Channel 7.\relax }}{subfigure.1}{}}
\newlabel{sub@fig:tdms_example_b}{{\rEfLiNK{x1-23004rb}{\csname :autoref\endcsname{subfigure}b}}{\rEfLiNK{x1-23004rb}{\csname :autoref\endcsname{subfigure}93}}{\rEfLiNK{x1-23004rb}{\csname :autoref\endcsname{subfigure}TDMS File 900, Channel 7.\relax }}{subfigure.1}{}}
\newlabel{fig:tdms_example}{{\rEfLiNK{x1-23005r8}{\csname :autoref\endcsname{figure}2.8}}{\rEfLiNK{x1-23005r8}{\csname :autoref\endcsname{figure}93}}{\rEfLiNK{x1-23005r8}{\csname :autoref\endcsname{figure}Data from TDMS File 900, Both Channel 12 (a) and 7 (b) From Test CP3 with Zero (0) Mean.}}{figure.1}{}}
\newlabel{sec:preprocessing}{{\rEfLiNK{x1-240003}{\csname :autoref\endcsname{section}2.3}}{\rEfLiNK{x1-240003}{\csname :autoref\endcsname{section}94}}{\rEfLiNK{x1-240003}{\csname :autoref\endcsname{section}Preprocessing}}{section.1}{}}
\newlabel{sec:resAnalysis}{{\rEfLiNK{x1-250001}{\csname :autoref\endcsname{subsection}2.3.1}}{\rEfLiNK{x1-250001}{\csname :autoref\endcsname{subsection}94}}{\rEfLiNK{x1-250001}{\csname :autoref\endcsname{subsection}Resolution Analysis}}{subsection.1}{}}
\newlabel{fig:res_analysis_example}{{\rEfLiNK{x1-25001r9}{\csname :autoref\endcsname{figure}2.9}}{\rEfLiNK{x1-25001r9}{\csname :autoref\endcsname{figure}96}}{\rEfLiNK{x1-25001r9}{\csname :autoref\endcsname{figure}Bit Resolution Colormap for Test CP3.}}{figure.1}{}}
\newlabel{sec:TOFDRemoval}{{\rEfLiNK{x1-260002}{\csname :autoref\endcsname{subsection}2.3.2}}{\rEfLiNK{x1-260002}{\csname :autoref\endcsname{subsection}97}}{\rEfLiNK{x1-260002}{\csname :autoref\endcsname{subsection}TOFD Removal}}{subsection.1}{}}
\newlabel{fig:TOFD_example_a}{{\rEfLiNK{x1-26001r1}{\csname :autoref\endcsname{subfigure}2.10a}}{\rEfLiNK{x1-26001r1}{\csname :autoref\endcsname{subfigure}99}}{\rEfLiNK{x1-26001r1}{\csname :autoref\endcsname{subfigure}TDMS File 900, Channel 12.\relax }}{subfigure.1}{}}
\newlabel{sub@fig:TOFD_example_a}{{\rEfLiNK{x1-26001ra}{\csname :autoref\endcsname{subfigure}a}}{\rEfLiNK{x1-26001ra}{\csname :autoref\endcsname{subfigure}99}}{\rEfLiNK{x1-26001ra}{\csname :autoref\endcsname{subfigure}TDMS File 900, Channel 12.\relax }}{subfigure.1}{}}
\newlabel{fig:TOFD_example_b}{{\rEfLiNK{x1-26002r2}{\csname :autoref\endcsname{subfigure}2.10b}}{\rEfLiNK{x1-26002r2}{\csname :autoref\endcsname{subfigure}99}}{\rEfLiNK{x1-26002r2}{\csname :autoref\endcsname{subfigure}TDMS File 900, Channel 12 Focused on a Single TOFD Block\relax }}{subfigure.1}{}}
\newlabel{sub@fig:TOFD_example_b}{{\rEfLiNK{x1-26002rb}{\csname :autoref\endcsname{subfigure}b}}{\rEfLiNK{x1-26002rb}{\csname :autoref\endcsname{subfigure}99}}{\rEfLiNK{x1-26002rb}{\csname :autoref\endcsname{subfigure}TDMS File 900, Channel 12 Focused on a Single TOFD Block\relax }}{subfigure.1}{}}
\newlabel{fig:TOFD_example}{{\rEfLiNK{x1-26003r11}{\csname :autoref\endcsname{figure}2.11}}{\rEfLiNK{x1-26003r11}{\csname :autoref\endcsname{figure}99}}{\rEfLiNK{x1-26003r11}{\csname :autoref\endcsname{figure}Data from TDMS File 900, Highlighting the TOFD Characteristics.}}{figure.1}{}}
\newlabel{fig:TOFD_thr_example}{{\rEfLiNK{x1-26004r12}{\csname :autoref\endcsname{figure}2.12}}{\rEfLiNK{x1-26004r12}{\csname :autoref\endcsname{figure}102}}{\rEfLiNK{x1-26004r12}{\csname :autoref\endcsname{figure}Data from TDMS File 900, Channel 12 Containing the Threshold and Indexes that Respectively Surpass It.}}{figure.1}{}}
\newlabel{fig:TOFD_window_example}{{\rEfLiNK{x1-26005r13}{\csname :autoref\endcsname{figure}2.13}}{\rEfLiNK{x1-26005r13}{\csname :autoref\endcsname{figure}105}}{\rEfLiNK{x1-26005r13}{\csname :autoref\endcsname{figure}Removal of Time-Of-Flight-Diffraction Sensor Signal.}}{figure.1}{}}
\newlabel{sec:bombRemoval}{{\rEfLiNK{x1-270003}{\csname :autoref\endcsname{subsection}2.3.3}}{\rEfLiNK{x1-270003}{\csname :autoref\endcsname{subsection}106}}{\rEfLiNK{x1-270003}{\csname :autoref\endcsname{subsection}Pressure Bomb Removal}}{subsection.1}{}}
\newlabel{fig:pressure_bomb}{{\rEfLiNK{x1-27001r14}{\csname :autoref\endcsname{figure}2.14}}{\rEfLiNK{x1-27001r14}{\csname :autoref\endcsname{figure}108}}{\rEfLiNK{x1-27001r14}{\csname :autoref\endcsname{figure}Data From TDMS File 751, Channel 7.}}{figure.1}{}}
\newlabel{sec:waveCapture}{{\rEfLiNK{x1-280004}{\csname :autoref\endcsname{section}2.4}}{\rEfLiNK{x1-280004}{\csname :autoref\endcsname{section}109}}{\rEfLiNK{x1-280004}{\csname :autoref\endcsname{section}Wave Capture}}{section.1}{}}
\newlabel{sec:noiseLevel}{{\rEfLiNK{x1-290001}{\csname :autoref\endcsname{subsection}2.4.1}}{\rEfLiNK{x1-290001}{\csname :autoref\endcsname{subsection}109}}{\rEfLiNK{x1-290001}{\csname :autoref\endcsname{subsection}Estimating Noise Level}}{subsection.1}{}}
\newlabel{eq:std_def}{{\rEfLiNK{x1-29001r1}{\csname :autoref\endcsname{equation}2.1}}{\rEfLiNK{x1-29001r1}{\csname :autoref\endcsname{equation}110}}{\rEfLiNK{x1-29001r1}{\csname :autoref\endcsname{equation}equation}}{equation.1}{}}
\newlabel{fig:noise_example}{{\rEfLiNK{x1-29003r15}{\csname :autoref\endcsname{figure}2.15}}{\rEfLiNK{x1-29003r15}{\csname :autoref\endcsname{figure}112}}{\rEfLiNK{x1-29003r15}{\csname :autoref\endcsname{figure}Partial Data From TDMS File 900, Channel 7 Highlighting the Noise Level}}{figure.1}{}}
\citation{mistrasgroupDiSPAEwinUSER2011}
\citation{mistrasgroupDiSPAEwinUSER2011}
\citation{mistrasgroupDiSPAEwinUSER2011}
\newlabel{sec:timingParameters}{{\rEfLiNK{x1-300002}{\csname :autoref\endcsname{subsection}2.4.2}}{\rEfLiNK{x1-300002}{\csname :autoref\endcsname{subsection}113}}{\rEfLiNK{x1-300002}{\csname :autoref\endcsname{subsection}Timing Parameters}}{subsection.1}{}}
\citation{mistrasgroupDiSPAEwinUSER2011}
\newlabel{fig:preprocessing_summary}{{\rEfLiNK{x1-30001r16}{\csname :autoref\endcsname{figure}2.16}}{\rEfLiNK{x1-30001r16}{\csname :autoref\endcsname{figure}116}}{\rEfLiNK{x1-30001r16}{\csname :autoref\endcsname{figure}Summary Streaming Data Treatment Workflow.}}{figure.1}{}}
\citation{mistrasgroupDiSPAEwinUSER2011}
\citation{luizaribeiromarnetMonitoramentoDefeitosEm2018}
\newlabel{sec:AEParameters}{{\rEfLiNK{x1-310003}{\csname :autoref\endcsname{subsection}2.4.3}}{\rEfLiNK{x1-310003}{\csname :autoref\endcsname{subsection}117}}{\rEfLiNK{x1-310003}{\csname :autoref\endcsname{subsection}Acoustic Emission Parameters}}{subsection.1}{}}
