\relax 
\providecommand\hyper@newdestlabel[2]{}
\@writefile{toc}{\contentsline {chapter}{\numberline {3}Results}{43}{chapter.3}}
\@writefile{lof}{\addvspace {10\p@ }}
\@writefile{lot}{\addvspace {10\p@ }}
\@writefile{loa}{\addvspace {10\p@ }}
\@writefile{toc}{\contentsline {section}{\numberline {3.1}Preprocessing}{43}{section.3.1}}
\@writefile{toc}{\contentsline {subsection}{\numberline {3.1.1}Resolution Analysis}{43}{subsection.3.1.1}}
\newlabel{results_resolutionAnalysis}{{3.1.1}{43}{Resolution Analysis}{subsection.3.1.1}{}}
\@writefile{lot}{\contentsline {table}{\numberline {3.1}{\ignorespaces Description\relax }}{43}{table.caption.41}}
\newlabel{tab:relevant_data_streaming}{{3.1}{43}{Description\relax }{table.caption.41}{}}
\@writefile{lof}{\contentsline {figure}{\numberline {3.1}{\ignorespaces Bit Resolution Colormap for Test CP2.\relax }}{44}{figure.caption.42}}
\newlabel{fig:bitreso_cp2}{{3.1}{44}{Bit Resolution Colormap for Test CP2.\relax }{figure.caption.42}{}}
\@writefile{lof}{\contentsline {figure}{\numberline {3.2}{\ignorespaces Bit Resolution Colormap for Test CP3.\relax }}{44}{figure.caption.43}}
\newlabel{fig:bitreso_cp3}{{3.2}{44}{Bit Resolution Colormap for Test CP3.\relax }{figure.caption.43}{}}
\@writefile{lof}{\contentsline {figure}{\numberline {3.3}{\ignorespaces Bit Resolution Colormap for Test CP4.\relax }}{45}{figure.caption.44}}
\newlabel{fig:bitreso_cp4}{{3.3}{45}{Bit Resolution Colormap for Test CP4.\relax }{figure.caption.44}{}}
\@writefile{toc}{\contentsline {subsection}{\numberline {3.1.2}Frequency Data}{45}{subsection.3.1.2}}
\@writefile{lof}{\contentsline {figure}{\numberline {3.4}{\ignorespaces Correlation Plot Between Each Frequency and The Output Classes: No-Propagation, Stable Propagation and Unstable Propagation for Test CP2.\relax }}{46}{figure.caption.45}}
\newlabel{fig:corr_plot_cp2}{{3.4}{46}{Correlation Plot Between Each Frequency and The Output Classes: No-Propagation, Stable Propagation and Unstable Propagation for Test CP2.\relax }{figure.caption.45}{}}
\@writefile{lof}{\contentsline {figure}{\numberline {3.5}{\ignorespaces Correlation Plot Between Each Frequency and The Output Classes: No-Propagation, Stable Propagation and Unstable Propagation for Test CP3.\relax }}{46}{figure.caption.46}}
\newlabel{fig:corr_plot_cp3}{{3.5}{46}{Correlation Plot Between Each Frequency and The Output Classes: No-Propagation, Stable Propagation and Unstable Propagation for Test CP3.\relax }{figure.caption.46}{}}
\@writefile{lof}{\contentsline {figure}{\numberline {3.6}{\ignorespaces Correlation Plot Between Each Frequency and The Output Classes: No-Propagation, Stable Propagation and Unstable Propagation for Test CP4.\relax }}{47}{figure.caption.47}}
\newlabel{fig:corr_plot_cp4}{{3.6}{47}{Correlation Plot Between Each Frequency and The Output Classes: No-Propagation, Stable Propagation and Unstable Propagation for Test CP4.\relax }{figure.caption.47}{}}
\@writefile{toc}{\contentsline {subsection}{\numberline {3.1.3}Input Correlation \& Relevance Analysis}{47}{subsection.3.1.3}}
\newlabel{sec:results_relevanceAnalysis}{{3.1.3}{47}{Input Correlation \& Relevance Analysis}{subsection.3.1.3}{}}
\@writefile{lof}{\contentsline {figure}{\numberline {3.7}{\ignorespaces Linear Correlation Matrix for Test CP2\relax }}{48}{figure.caption.48}}
\newlabel{fig:corr_mat_cp2}{{3.7}{48}{Linear Correlation Matrix for Test CP2\relax }{figure.caption.48}{}}
\@writefile{lof}{\contentsline {figure}{\numberline {3.8}{\ignorespaces Linear Correlation Matrix for Test CP3\relax }}{48}{figure.caption.49}}
\newlabel{fig:corr_mat_cp3}{{3.8}{48}{Linear Correlation Matrix for Test CP3\relax }{figure.caption.49}{}}
\@writefile{lof}{\contentsline {figure}{\numberline {3.9}{\ignorespaces Linear Correlation Matrix for Test CP4\relax }}{49}{figure.caption.50}}
\newlabel{fig:corr_mat_cp4}{{3.9}{49}{Linear Correlation Matrix for Test CP4\relax }{figure.caption.50}{}}
\@writefile{lof}{\contentsline {figure}{\numberline {3.10}{\ignorespaces Relevance Analysis by Class for Test CP2.\relax }}{49}{figure.caption.51}}
\newlabel{fig:relevance_cp2}{{3.10}{49}{Relevance Analysis by Class for Test CP2.\relax }{figure.caption.51}{}}
\@writefile{lof}{\contentsline {figure}{\numberline {3.11}{\ignorespaces Relevance Analysis by Class for Test CP3\relax }}{50}{figure.caption.52}}
\newlabel{fig:relevance_cp3}{{3.11}{50}{Relevance Analysis by Class for Test CP3\relax }{figure.caption.52}{}}
\@writefile{lof}{\contentsline {figure}{\numberline {3.12}{\ignorespaces Relevance Analysis by Class for Test CP4\relax }}{50}{figure.caption.53}}
\newlabel{fig:relevance_cp4}{{3.12}{50}{Relevance Analysis by Class for Test CP4\relax }{figure.caption.53}{}}
\@writefile{lof}{\contentsline {figure}{\numberline {3.13}{\ignorespaces Network Size Investigation for Test CP2\relax }}{52}{figure.caption.54}}
\newlabel{fig:ann_size_cp2}{{3.13}{52}{Network Size Investigation for Test CP2\relax }{figure.caption.54}{}}
\@writefile{lof}{\contentsline {figure}{\numberline {3.14}{\ignorespaces Network Size Investigation for Test CP3\relax }}{52}{figure.caption.55}}
\newlabel{fig:ann_size_cp3}{{3.14}{52}{Network Size Investigation for Test CP3\relax }{figure.caption.55}{}}
\citation{luizaribeiromarnetMonitoramentoDefeitosEm2018}
\@writefile{lof}{\contentsline {figure}{\numberline {3.15}{\ignorespaces Network Size Investigation for Test CP4\relax }}{53}{figure.caption.56}}
\newlabel{fig:ann_size_cp4}{{3.15}{53}{Network Size Investigation for Test CP4\relax }{figure.caption.56}{}}
\@writefile{toc}{\contentsline {section}{\numberline {3.2}Transition-Time-Estimation}{53}{section.3.2}}
\newlabel{sec:results_tte}{{3.2}{53}{Transition-Time-Estimation}{section.3.2}{}}
\@writefile{lof}{\contentsline {figure}{\numberline {3.16}{\ignorespaces Transition-Time-Estimation Method Applied to Test CP2\relax }}{54}{figure.caption.57}}
\newlabel{fig:tte_cp2}{{3.16}{54}{Transition-Time-Estimation Method Applied to Test CP2\relax }{figure.caption.57}{}}
\@writefile{lof}{\contentsline {figure}{\numberline {3.17}{\ignorespaces Transition-Time-Estimation Method Applied to Test CP3\relax }}{54}{figure.caption.58}}
\newlabel{fig:tte_cp3}{{3.17}{54}{Transition-Time-Estimation Method Applied to Test CP3\relax }{figure.caption.58}{}}
\@writefile{lof}{\contentsline {figure}{\numberline {3.18}{\ignorespaces Transition-Time-Estimation Method Applied to Test CP4\relax }}{55}{figure.caption.59}}
\newlabel{fig:tte_cp4}{{3.18}{55}{Transition-Time-Estimation Method Applied to Test CP4\relax }{figure.caption.59}{}}
\@writefile{toc}{\contentsline {section}{\numberline {3.3}Classification Results}{55}{section.3.3}}
\@writefile{toc}{\contentsline {subsection}{\numberline {3.3.1}CP2}{56}{subsection.3.3.1}}
\newlabel{tab:results_cp2_tte_perc_mean}{{3.2a}{56}{\relax }{table.caption.60}{}}
\newlabel{sub@tab:results_cp2_tte_perc_mean}{{a}{56}{\relax }{table.caption.60}{}}
\newlabel{tab:results_cp2_tte_perc_std}{{3.2b}{56}{\relax }{table.caption.60}{}}
\newlabel{sub@tab:results_cp2_tte_perc_std}{{b}{56}{\relax }{table.caption.60}{}}
\@writefile{lot}{\contentsline {table}{\numberline {3.2}{\ignorespaces Mean (a) and Standard Deviation (b) of the Confusion Matrix Using 4 Classes for Test CP2 in Percentage.\relax }}{56}{table.caption.60}}
\newlabel{tab:results_cp2_tte_samples_mean}{{3.3a}{57}{\relax }{table.caption.61}{}}
\newlabel{sub@tab:results_cp2_tte_samples_mean}{{a}{57}{\relax }{table.caption.61}{}}
\newlabel{tab:results_cp2_tte_samples_std}{{3.3b}{57}{\relax }{table.caption.61}{}}
\newlabel{sub@tab:results_cp2_tte_samples_std}{{b}{57}{\relax }{table.caption.61}{}}
\@writefile{lot}{\contentsline {table}{\numberline {3.3}{\ignorespaces Mean (a) and Standard Deviation (b) of the Confusion Matrix Using 4 Classes for Test CP2 in Samples.\relax }}{57}{table.caption.61}}
\newlabel{tab:results_cp2_samples_mean}{{3.4a}{57}{\relax }{table.caption.62}{}}
\newlabel{sub@tab:results_cp2_samples_mean}{{a}{57}{\relax }{table.caption.62}{}}
\newlabel{tab:results_cp2_samples_std}{{3.4b}{57}{\relax }{table.caption.62}{}}
\newlabel{sub@tab:results_cp2_samples_std}{{b}{57}{\relax }{table.caption.62}{}}
\@writefile{lot}{\contentsline {table}{\numberline {3.4}{\ignorespaces Mean (a) and Standard Deviation (b) of the Confusion Matrix for Test CP2 in Samples.\relax }}{57}{table.caption.62}}
\newlabel{tab:results_cp2_perc_mean}{{3.5a}{57}{\relax }{table.caption.63}{}}
\newlabel{sub@tab:results_cp2_perc_mean}{{a}{57}{\relax }{table.caption.63}{}}
\newlabel{tab:results_cp2_perc_std}{{3.5b}{57}{\relax }{table.caption.63}{}}
\newlabel{sub@tab:results_cp2_perc_std}{{b}{57}{\relax }{table.caption.63}{}}
\@writefile{lot}{\contentsline {table}{\numberline {3.5}{\ignorespaces Mean (a) and Standard Deviation (b) of the Confusion Matrix for Test CP2 in Percentage.\relax }}{57}{table.caption.63}}
\@writefile{toc}{\contentsline {subsection}{\numberline {3.3.2}CP3}{57}{subsection.3.3.2}}
\newlabel{tab:results_cp3_tte_perc_mean}{{3.6a}{58}{\relax }{table.caption.64}{}}
\newlabel{sub@tab:results_cp3_tte_perc_mean}{{a}{58}{\relax }{table.caption.64}{}}
\newlabel{tab:results_cp3_tte_perc_std}{{3.6b}{58}{\relax }{table.caption.64}{}}
\newlabel{sub@tab:results_cp3_tte_perc_std}{{b}{58}{\relax }{table.caption.64}{}}
\@writefile{lot}{\contentsline {table}{\numberline {3.6}{\ignorespaces Mean (a) and Standard Deviation (b) of the Confusion Matrix Using 4 Classes for Test CP3 in Percentage.\relax }}{58}{table.caption.64}}
\newlabel{tab:results_cp3_tte_samples_mean}{{3.7a}{59}{\relax }{table.caption.65}{}}
\newlabel{sub@tab:results_cp3_tte_samples_mean}{{a}{59}{\relax }{table.caption.65}{}}
\newlabel{tab:results_cp3_tte_samples_std}{{3.7b}{59}{\relax }{table.caption.65}{}}
\newlabel{sub@tab:results_cp3_tte_samples_std}{{b}{59}{\relax }{table.caption.65}{}}
\@writefile{lot}{\contentsline {table}{\numberline {3.7}{\ignorespaces Mean (a) and Standard Deviation (b) of the Confusion Matrix Using 4 Classes for Test CP3 in Samples.\relax }}{59}{table.caption.65}}
\newlabel{tab:results_cp3_perc_mean}{{3.8a}{59}{\relax }{table.caption.66}{}}
\newlabel{sub@tab:results_cp3_perc_mean}{{a}{59}{\relax }{table.caption.66}{}}
\newlabel{tab:results_cp3_perc_std}{{3.8b}{59}{\relax }{table.caption.66}{}}
\newlabel{sub@tab:results_cp3_perc_std}{{b}{59}{\relax }{table.caption.66}{}}
\@writefile{lot}{\contentsline {table}{\numberline {3.8}{\ignorespaces Mean (a) and Standard Deviation (b) of the Confusion Matrix for Test CP3 in Percentage.\relax }}{59}{table.caption.66}}
\newlabel{tab:results_cp3_samples_mean}{{3.9a}{59}{\relax }{table.caption.67}{}}
\newlabel{sub@tab:results_cp3_samples_mean}{{a}{59}{\relax }{table.caption.67}{}}
\newlabel{tab:results_cp3_samples_std}{{3.9b}{59}{\relax }{table.caption.67}{}}
\newlabel{sub@tab:results_cp3_samples_std}{{b}{59}{\relax }{table.caption.67}{}}
\@writefile{lot}{\contentsline {table}{\numberline {3.9}{\ignorespaces Mean (a) and Standard Deviation (b) of the Confusion Matrix for Test CP3 in Samples.\relax }}{59}{table.caption.67}}
\@writefile{toc}{\contentsline {subsection}{\numberline {3.3.3}CP4}{59}{subsection.3.3.3}}
\newlabel{tab:results_cp4_tte_perc_mean}{{3.10a}{60}{\relax }{table.caption.68}{}}
\newlabel{sub@tab:results_cp4_tte_perc_mean}{{a}{60}{\relax }{table.caption.68}{}}
\newlabel{tab:results_cp4_tte_perc_std}{{3.10b}{60}{\relax }{table.caption.68}{}}
\newlabel{sub@tab:results_cp4_tte_perc_std}{{b}{60}{\relax }{table.caption.68}{}}
\@writefile{lot}{\contentsline {table}{\numberline {3.10}{\ignorespaces Mean (a) and Standard Deviation (b) of the Confusion Matrix With All Classes for Test CP4 in Percentage.\relax }}{60}{table.caption.68}}
\newlabel{tab:results_cp4_tte_samples_mean}{{3.11a}{61}{\relax }{table.caption.69}{}}
\newlabel{sub@tab:results_cp4_tte_samples_mean}{{a}{61}{\relax }{table.caption.69}{}}
\newlabel{tab:results_cp4_tte_samples_std}{{3.11b}{61}{\relax }{table.caption.69}{}}
\newlabel{sub@tab:results_cp4_tte_samples_std}{{b}{61}{\relax }{table.caption.69}{}}
\@writefile{lot}{\contentsline {table}{\numberline {3.11}{\ignorespaces Mean (a) and Standard Deviation (b) of the Confusion Matrix With All Classes for Test CP4 in Samples.\relax }}{61}{table.caption.69}}
\newlabel{tab:results_cp4_perc_mean}{{3.12a}{61}{\relax }{table.caption.70}{}}
\newlabel{sub@tab:results_cp4_perc_mean}{{a}{61}{\relax }{table.caption.70}{}}
\newlabel{tab:results_cp4_perc_std}{{3.12b}{61}{\relax }{table.caption.70}{}}
\newlabel{sub@tab:results_cp4_perc_std}{{b}{61}{\relax }{table.caption.70}{}}
\@writefile{lot}{\contentsline {table}{\numberline {3.12}{\ignorespaces Mean (a) and Standard Deviation (b) of the Confusion Matrix After Joining Cycles for Test CP4 in Percentage.\relax }}{61}{table.caption.70}}
\newlabel{tab:results_cp4_samples_mean}{{3.13a}{61}{\relax }{table.caption.71}{}}
\newlabel{sub@tab:results_cp4_samples_mean}{{a}{61}{\relax }{table.caption.71}{}}
\newlabel{tab:results_cp4_samples_std}{{3.13b}{61}{\relax }{table.caption.71}{}}
\newlabel{sub@tab:results_cp4_samples_std}{{b}{61}{\relax }{table.caption.71}{}}
\@writefile{lot}{\contentsline {table}{\numberline {3.13}{\ignorespaces Mean (a) and Standard Deviation (b) of the Confusion Matrix After Joining Cycles for Test CP4 in Samples.\relax }}{61}{table.caption.71}}
\citation{luizaribeiromarnetMonitoramentoDefeitosEm2018}
\@writefile{toc}{\contentsline {section}{\numberline {3.4}Conclusion}{62}{section.3.4}}
\citation{carlosfernandocarlimpintoMonitoracaoDefeitosEm2014}
\@writefile{toc}{\contentsline {chapter}{\numberline {4}Future Works}{63}{chapter.4}}
\@writefile{lof}{\addvspace {10\p@ }}
\@writefile{lot}{\addvspace {10\p@ }}
\@writefile{loa}{\addvspace {10\p@ }}
\@setckpt{results}{
\setcounter{page}{64}
\setcounter{equation}{0}
\setcounter{enumi}{0}
\setcounter{enumii}{0}
\setcounter{enumiii}{0}
\setcounter{enumiv}{0}
\setcounter{footnote}{0}
\setcounter{mpfootnote}{0}
\setcounter{part}{0}
\setcounter{chapter}{4}
\setcounter{section}{0}
\setcounter{subsection}{0}
\setcounter{subsubsection}{0}
\setcounter{paragraph}{0}
\setcounter{subparagraph}{0}
\setcounter{figure}{0}
\setcounter{table}{0}
\setcounter{NAT@ctr}{0}
\setcounter{keywords}{3}
\setcounter{parentequation}{0}
\setcounter{Item}{0}
\setcounter{Hfootnote}{0}
\setcounter{bookmark@seq@number}{48}
\setcounter{float@type}{4}
\setcounter{caption@flags}{0}
\setcounter{ContinuedFloat}{0}
\setcounter{subfigure}{0}
\setcounter{subtable}{0}
\setcounter{AM@survey}{0}
\setcounter{nlinenum}{0}
\setcounter{@pps}{0}
\setcounter{@ppsavesec}{0}
\setcounter{@ppsaveapp}{0}
\setcounter{AlgoLine}{21}
\setcounter{algocfline}{3}
\setcounter{algocfproc}{3}
\setcounter{algocf}{3}
\setcounter{theorem}{0}
\setcounter{lemma}{0}
\setcounter{section@level}{0}
}
