This is BibTeX, Version 0.99dThe top-level auxiliary file: tese.aux
A level-1 auxiliary file: introduction.aux
A level-1 auxiliary file: methods.aux
A level-1 auxiliary file: results.aux
The style file: coppe-unsrt.bst
A level-1 auxiliary file: tte.aux
Database file #1: masterThesis.bib
Warning--empty author in WorldEnergyOutlook
Warning--empty journal in WorldEnergyOutlook
Warning--empty year in WorldEnergyOutlook
Warning--empty year in WorldEnergyOutlook
Warning--empty publisher in morrisHebbOrganizationBehavior1999
Warning--empty address in moreLevenbergMarquardtAlgorithmImplementation1978
Warning--empty journal in zeilerADADELTAAdaptiveLearning2012
Warning--empty journal in sunSelfOrganizingMapNeural1999
Warning--empty year in physicalacousticsR1520KHz
Warning--empty year in physicalacousticsR15IAST150KHz
Warning--empty year in physicalacousticsWD100900KHz
Warning--empty year in nationalinstrumentsNITDMSFile
(There were 12 warnings)
